Timestep Time           Niter Error
00000000 0.00000000e+00 00000 1.00000000e+13
00000001 1.00000000e-04 00001 1.00000000e+13
00000001 1.00000000e-04 00001 1.00000000e+13
00000001 1.00000000e-04 00001 1.00000000e+13
00000001 1.00000000e-04 00001 1.00000000e+13
00000001 1.00000000e-04 00001 1.00000000e+13
00000002 2.00000000e-04 00001 1.00000000e+13
00000002 2.00000000e-04 00001 1.00000000e+13
00000002 2.00000000e-04 00001 1.00000000e+13
00000002 2.00000000e-04 00001 1.00000000e+13
00000002 2.00000000e-04 00001 1.00000000e+13
00000003 3.00000000e-04 00001 1.00000000e+13
00000003 3.00000000e-04 00001 1.00000000e+13
00000003 3.00000000e-04 00001 1.00000000e+13
00000003 3.00000000e-04 00001 1.00000000e+13
00000003 3.00000000e-04 00001 1.00000000e+13
00000004 4.00000000e-04 00001 1.00000000e+13
00000004 4.00000000e-04 00001 1.00000000e+13
00000004 4.00000000e-04 00001 1.00000000e+13
00000004 4.00000000e-04 00001 1.00000000e+13
00000004 4.00000000e-04 00001 1.00000000e+13
00000005 5.00000000e-04 00001 1.00000000e+13
00000005 5.00000000e-04 00001 1.00000000e+13
00000005 5.00000000e-04 00001 1.00000000e+13
00000005 5.00000000e-04 00001 1.00000000e+13
00000005 5.00000000e-04 00001 1.00000000e+13
00000006 6.00000000e-04 00001 1.00000000e+13
00000006 6.00000000e-04 00001 1.00000000e+13
00000006 6.00000000e-04 00001 1.00000000e+13
00000006 6.00000000e-04 00001 1.00000000e+13
00000006 6.00000000e-04 00001 1.00000000e+13
00000007 7.00000000e-04 00001 1.00000000e+13
00000007 7.00000000e-04 00001 1.00000000e+13
00000007 7.00000000e-04 00001 1.00000000e+13
00000007 7.00000000e-04 00001 1.00000000e+13
00000007 7.00000000e-04 00001 1.00000000e+13
00000008 8.00000000e-04 00001 1.00000000e+13
00000008 8.00000000e-04 00001 1.00000000e+13
00000008 8.00000000e-04 00001 1.00000000e+13
00000008 8.00000000e-04 00001 1.00000000e+13
00000008 8.00000000e-04 00001 1.00000000e+13
00000009 9.00000000e-04 00001 1.00000000e+13
00000009 9.00000000e-04 00001 1.00000000e+13
00000009 9.00000000e-04 00001 1.00000000e+13
00000009 9.00000000e-04 00001 1.00000000e+13
00000009 9.00000000e-04 00001 1.00000000e+13
00000010 1.00000000e-03 00001 1.00000000e+13
00000010 1.00000000e-03 00001 1.00000000e+13
00000010 1.00000000e-03 00001 1.00000000e+13
00000010 1.00000000e-03 00001 1.00000000e+13
00000010 1.00000000e-03 00001 1.00000000e+13
00000011 1.10000000e-03 00001 1.00000000e+13
00000011 1.10000000e-03 00001 1.00000000e+13
00000011 1.10000000e-03 00001 1.00000000e+13
00000011 1.10000000e-03 00001 1.00000000e+13
00000011 1.10000000e-03 00001 1.00000000e+13
