$MeshFormat
4.1 0 8
$EndMeshFormat
$PhysicalNames
12
0 1 "sw"
0 2 "se"
0 3 "ne"
0 4 "nw"
0 5 "beam1"
0 6 "beam2"
1 7 "s"
1 8 "e"
1 9 "n"
1 10 "w"
1 11 "circle"
2 12 "domain"
$EndPhysicalNames
$Entities
10 10 1 0
1 0 0 0 1 1 
2 1.5 0 0 1 2 
3 1.5 0.41 0 1 3 
4 0 0.41 0 1 4 
5 0.2 0.2 0 0 
6 0.2489897948556636 0.21 0 1 5 
7 0.15 0.2 0 1 6 
8 0.2489897948556636 0.19 0 0 
9 0.5989897948556635 0.19 0 0 
10 0.5989897948556635 0.21 0 0 
1 0 0 0 1.5 0 0 1 7 2 1 -2 
2 1.5 0 0 1.5 0.41 0 1 8 2 2 -3 
3 0 0.41 0 1.5 0.41 0 1 9 2 3 -4 
4 0 0 0 0 0.41 0 1 10 2 4 -1 
5 0.15 0.2 0 0.2489897948556636 0.2499018520085758 0 1 11 2 6 -7 
6 0.15 0.1500981479914243 0 0.2489897948556636 0.2 0 1 11 2 7 -8 
7 0.2489897948556636 0.19 0 0.2489897948556636 0.21 0 1 11 2 8 -6 
8 0.2489897948556636 0.19 0 0.5989897948556635 0.19 0 0 2 8 -9 
9 0.5989897948556635 0.19 0 0.5989897948556635 0.21 0 0 2 9 -10 
10 0.2489897948556636 0.21 0 0.5989897948556635 0.21 0 0 2 10 -6 
1 0 0 0 1.5 0.41 0 1 12 7 1 2 3 4 -7 -6 -5 
$EndEntities
$Nodes
15 683 1 683
0 1 0 1
1
0 0 0
0 2 0 1
2
1.5 0 0
0 3 0 1
3
1.5 0.41 0
0 4 0 1
4
0 0.41 0
0 6 0 1
5
0.2489897948556636 0.21 0
0 7 0 1
6
0.15 0.2 0
0 8 0 1
7
0.2489897948556636 0.19 0
1 1 0 37
8
9
10
11
12
13
14
15
16
17
18
19
20
21
22
23
24
25
26
27
28
29
30
31
32
33
34
35
36
37
38
39
40
41
42
43
44
0.03947368421035101 0 0
0.07894736842070024 0 0
0.1184210526310723 0 0
0.157894736841458 0 0
0.1973684210518246 0 0
0.2368421052621381 0 0
0.2763157894724959 0 0
0.3157894736828815 0 0
0.3552631578932672 0 0
0.3947368421036528 0 0
0.4342105263140386 0 0
0.4736842105244242 0 0
0.5131578947348099 0 0
0.5526315789451957 0 0
0.5921052631555812 0 0
0.6315789473659669 0 0
0.6710526315763528 0 0
0.7105263157867383 0 0
0.7499999999971458 0 0
0.7894736842078018 0 0
0.8289473684184794 0 0
0.8684210526291573 0 0
0.9078947368398347 0 0
0.9473684210505126 0 0
0.9868421052611902 0 0
1.026315789471868 0 0
1.065789473682546 0 0
1.105263157893223 0 0
1.144736842103901 0 0
1.184210526314578 0 0
1.223684210525256 0 0
1.263157894735934 0 0
1.302631578946612 0 0
1.342105263157289 0 0
1.381578947367967 0 0
1.421052631578644 0 0
1.460526315789322 0 0
1 2 0 10
45
46
47
48
49
50
51
52
53
54
1.5 0.03727272727265683 0
1.5 0.07454545454529118 0
1.5 0.1118181818179101 0
1.5 0.149090909090529 0
1.5 0.1863636363631695 0
1.5 0.2236363636358928 0
1.5 0.260909090908699 0
1.5 0.298181818181505 0
1.5 0.3354545454543468 0
1.5 0.372727272727161 0
1 3 0 37
55
56
57
58
59
60
61
62
63
64
65
66
67
68
69
70
71
72
73
74
75
76
77
78
79
80
81
82
83
84
85
86
87
88
89
90
91
1.460526315789947 0.41 0
1.421052631579894 0.41 0
1.381578947369476 0.41 0
1.342105263158839 0.41 0
1.302631578948355 0.41 0
1.263157894738295 0.41 0
1.223684210527882 0.41 0
1.184210526317245 0.41 0
1.144736842106608 0.41 0
1.10526315789597 0.41 0
1.065789473685333 0.41 0
1.026315789474696 0.41 0
0.9868421052641709 0.41 0
0.947368421053826 0.41 0
0.9078947368434811 0.41 0
0.8684210526331362 0.41 0
0.8289473684227913 0.41 0
0.7894736842124463 0.41 0
0.7500000000020796 0.41 0
0.7105263157914643 0.41 0
0.6710526315808274 0.41 0
0.6315789473701906 0.41 0
0.5921052631595536 0.41 0
0.5526315789489167 0.41 0
0.5131578947382798 0.41 0
0.4736842105276429 0.41 0
0.434210526317006 0.41 0
0.3947368421063691 0.41 0
0.3552631578957322 0.41 0
0.3157894736850952 0.41 0
0.2763157894744586 0.41 0
0.2368421052638214 0.41 0
0.1973684210531848 0.41 0
0.1578947368425476 0.41 0
0.1184210526319109 0.41 0
0.07894736842127381 0.41 0
0.03947368421063713 0.41 0
1 4 0 10
92
93
94
95
96
97
98
99
100
101
0 0.3727272727273585 0
0 0.3354545454547171 0
0 0.2981818181820973 0
0 0.2609090909094774 0
0 0.2236363636368359 0
0 0.1863636363641117 0
0 0.1490909090913046 0
0 0.1118181818184977 0
0 0.07454545454565503 0
0 0.03727272727283992 0
1 5 0 7
102
103
104
105
106
107
108
0.2421250461043025 0.2269347450463225 0
0.2296339015490925 0.2402719738649435 0
0.2131847302234932 0.2482303108940188 0
0.1949745517070765 0.2497468076307933 0
0.1774355929799536 0.2446189145523922 0
0.162910429937782 0.2335315343013084 0
0.1533391036133686 0.2179655433648986 0
1 6 0 7
109
110
111
112
113
114
115
0.1533391036424374 0.1820344565596027 0
0.162910430077108 0.1664684655445818 0
0.1774355932519328 0.1553810853100641 0
0.1949745521395795 0.1502531923255151 0
0.2131847305810252 0.1517696892037199 0
0.2296339017476764 0.1597280262811834 0
0.2421250461622975 0.1730652550443799 0
1 7 0 0
2 1 0 568
116
117
118
119
120
121
122
123
124
125
126
127
128
129
130
131
132
133
134
135
136
137
138
139
140
141
142
143
144
145
146
147
148
149
150
151
152
153
154
155
156
157
158
159
160
161
162
163
164
165
166
167
168
169
170
171
172
173
174
175
176
177
178
179
180
181
182
183
184
185
186
187
188
189
190
191
192
193
194
195
196
197
198
199
200
201
202
203
204
205
206
207
208
209
210
211
212
213
214
215
216
217
218
219
220
221
222
223
224
225
226
227
228
229
230
231
232
233
234
235
236
237
238
239
240
241
242
243
244
245
246
247
248
249
250
251
252
253
254
255
256
257
258
259
260
261
262
263
264
265
266
267
268
269
270
271
272
273
274
275
276
277
278
279
280
281
282
283
284
285
286
287
288
289
290
291
292
293
294
295
296
297
298
299
300
301
302
303
304
305
306
307
308
309
310
311
312
313
314
315
316
317
318
319
320
321
322
323
324
325
326
327
328
329
330
331
332
333
334
335
336
337
338
339
340
341
342
343
344
345
346
347
348
349
350
351
352
353
354
355
356
357
358
359
360
361
362
363
364
365
366
367
368
369
370
371
372
373
374
375
376
377
378
379
380
381
382
383
384
385
386
387
388
389
390
391
392
393
394
395
396
397
398
399
400
401
402
403
404
405
406
407
408
409
410
411
412
413
414
415
416
417
418
419
420
421
422
423
424
425
426
427
428
429
430
431
432
433
434
435
436
437
438
439
440
441
442
443
444
445
446
447
448
449
450
451
452
453
454
455
456
457
458
459
460
461
462
463
464
465
466
467
468
469
470
471
472
473
474
475
476
477
478
479
480
481
482
483
484
485
486
487
488
489
490
491
492
493
494
495
496
497
498
499
500
501
502
503
504
505
506
507
508
509
510
511
512
513
514
515
516
517
518
519
520
521
522
523
524
525
526
527
528
529
530
531
532
533
534
535
536
537
538
539
540
541
542
543
544
545
546
547
548
549
550
551
552
553
554
555
556
557
558
559
560
561
562
563
564
565
566
567
568
569
570
571
572
573
574
575
576
577
578
579
580
581
582
583
584
585
586
587
588
589
590
591
592
593
594
595
596
597
598
599
600
601
602
603
604
605
606
607
608
609
610
611
612
613
614
615
616
617
618
619
620
621
622
623
624
625
626
627
628
629
630
631
632
633
634
635
636
637
638
639
640
641
642
643
644
645
646
647
648
649
650
651
652
653
654
655
656
657
658
659
660
661
662
663
664
665
666
667
668
669
670
671
672
673
674
675
676
677
678
679
680
681
682
683
0.2658625978773862 0.1995456227746656 0
0.4503673150247581 0.3779540127303265 0
1.466228602551223 0.2046120448803012 0
0.7718575568522199 0.3720473634165504 0
1.244126896463401 0.3731452994132623 0
0.9255798694365073 0.377714254733868 0
0.6472576409092644 0.03754328540703652 0
1.041276017514876 0.3756667208106653 0
1.1623072216318 0.0328837362085371 0
0.5318428710659555 0.0376231504616996 0
0.8536282934530797 0.03730242451154302 0
0.5759442633646806 0.3811101032934088 0
1.008585341678739 0.03409471166845302 0
0.4155149518247497 0.03421972051314537 0
1.281183368140626 0.03638432695291049 0
0.2498612093962004 0.2428469942640216 0
0.2474174151042227 0.1552157194748113 0
0.1605710585170604 0.2516543845931463 0
0.1573545827425611 0.1496116234726516 0
1.361842105264158 0.3758147866927845 0
0.3334017183769131 0.3739336907609341 0
0.2053929656608456 0.2647590364261413 0
0.3355263157880743 0.03418521330715866 0
0.1366550651585915 0.1876087132008031 0
0.2033809123171921 0.1344713442949472 0
0.03669736219878488 0.09646310361913983 0
0.0982986224328654 0.3755494912110483 0
0.03227912868641784 0.2795454545457872 0
1.16351136983589 0.3755190825380391 0
0.7694252928612766 0.0313188383305435 0
0.6891154776461423 0.3708242540381173 0
0.9277115048421782 0.0367534543782059 0
1.361807118424776 0.033594307866567 0
1.085701713471721 0.03107940097188841 0
0.8486842105279636 0.3758147866928765 0
1.46722828321888 0.2780497395599622 0
1.469600589170792 0.134490044204227 0
0.2565789473691399 0.3783595812211371 0
0.2560236087152221 0.0331050015251946 0
0.1373430990851487 0.03518510953470318 0
0.1764539868440452 0.3764092570557734 0
0.03812753070328722 0.1642367457368992 0
1.439333402096702 0.03566183263722046 0
1.441864602816708 0.3745724569480942 0
0.2672151055750011 0.2192201674374195 0
0.2830239570232134 0.2086683221615681 0
0.2836209805342095 0.228604771200186 0
0.300274007164079 0.2180384321340185 0
0.2998212442829772 0.1980482030956716 0
0.3172461032967668 0.207453015996475 0
0.3165577466112952 0.1874584827842494 0
0.3341611684273192 0.1968581767816165 0
0.3348547172479476 0.2168521422514211 0
0.3518164138775243 0.206257152233358 0
0.3525048239023743 0.2262454819270341 0
0.3694702364384031 0.2156545793599684 0
0.3685969274649193 0.1960133125150077 0
0.3861986528514945 0.2055102440131676 0
0.3870847834620983 0.2251266789074236 0
0.4040532217438568 0.214563245121343 0
0.4022272893125377 0.1950316752983624 0
0.4208634830221759 0.2039961640470538 0
0.419217841438869 0.1840757836703433 0
0.4377987478810478 0.1933345781525968 0
0.4387236390375003 0.2131762407754942 0
0.4556418419032096 0.2026730788402506 0
0.4564348114602957 0.2225136827108318 0
0.4733371365899458 0.2120510914299546 0
0.4740322086555989 0.2320359088718593 0
0.4909888355161958 0.2214664867076155 0
0.4902975401127195 0.2014878477102493 0
0.5079524227342179 0.210884295069437 0
0.4371053526313134 0.1733345131194797 0
0.5072637478776818 0.1908974624123654 0
0.524918137385509 0.2002954515892395 0
0.5256063919213436 0.2202835984623391 0
0.5425724474472443 0.2096936891700741 0
0.5418841776949579 0.1897055898742287 0
0.5592477792210339 0.1991136586369077 0
0.5601783354461389 0.2190934734820749 0
0.577192912831695 0.208501705424112 0
0.5585110617904591 0.1791271861640047 0
0.5778730893269751 0.2284901341511475 0
0.5950018775015201 0.2181496036295906 0
0.5955599593646622 0.2379295827827778 0
0.6125314983656565 0.2273463643636342 0
0.6119658894693569 0.2075543977336393 0
0.6294677869006157 0.2167076508954467 0
0.628608584294067 0.1955965248314985 0
0.6470450738674591 0.2046896463709387 0
0.6317037554592041 0.2385085681163584 0
0.6472603414681067 0.1832840152955784 0
0.672416553844017 0.1974313697547727 0
0.4572136706455977 0.2421069341162549 0
0.4771389540070211 0.25287564772056 0
0.4180881641794056 0.1640279049055089 0
0.4366461616684297 0.153305593808739 0
0.5785694172070445 0.2484780138542889 0
0.3009607115956455 0.2380186988926299 0
0.33348125335234 0.1768697380265399 0
0.3156416131014281 0.167475907361131 0
0.3328420267951165 0.1567213890404421 0
0.3138752595738876 0.146044578456817 0
0.5411393751840063 0.1697194212666613 0
0.5581063553976298 0.1591103162237651 0
0.540507657618616 0.1497293305363193 0
0.5610464754471353 0.1364608009377811 0
0.4181923254593026 0.1469264002774196 0
0.5990802920616866 0.260014859070333 0
0.4543233592032799 0.2641352000513811 0
0.6762600109581953 0.1640133970862913 0
0.7072683887017859 0.1821168350866583 0
0.6983034030624736 0.2258760386645642 0
0.7387317727414479 0.2046765081913675 0
0.4369261334195165 0.1286282908408465 0
0.4778178074818573 0.2810320993355566 0
0.3329647050235089 0.1333840381230473 0
0.5777070130634001 0.2787657628338655 0
0.6265452151428941 0.1743171124076272 0
0.7432998456461524 0.16514708869995 0
0.7754049247486644 0.1887169958163066 0
0.771295500957348 0.227921779531656 0
0.8076406753883505 0.212352672442526 0
0.8120515800719343 0.1726505265087973 0
0.8442465364721478 0.1964137630852187 0
0.8397734921770504 0.2361649985684732 0
0.8764254135629652 0.220176019319081 0
0.8808984019215005 0.1804288162931323 0
0.9130832737441723 0.2041807271495586 0
0.9175572617262728 0.1644324717328857 0
0.9497432887871107 0.1881824829037549 0
0.9452687472676554 0.2279315224631928 0
0.9819294433734334 0.211932281136158 0
0.9864039044983428 0.172183365374591 0
1.018590224205568 0.1959329144323169 0
1.014115730807247 0.2356818783958649 0
1.050776563727237 0.2196824338151427 0
1.055251047163547 0.179933486383994 0
1.08743740139358 0.203682983695841 0
1.082962915812359 0.2434319339730852 0
1.119623757441141 0.227432478237002 0
1.124098242328404 0.1876835289852847 0
1.15628459955509 0.2114330218147681 0
1.160759084523214 0.1716840724486928 0
1.192945441959898 0.195433564973837 0
1.188470956913116 0.2351825144532964 0
1.225131799420718 0.2191830574639788 0
1.229606284454452 0.1794341080033893 0
1.261792641941092 0.2031836004562251 0
1.257318156902636 0.2429325499236337 0
1.293978999430886 0.2269330929045049 0
1.298453484468062 0.1871841434389461 0
1.330639841960106 0.2109336358839786 0
1.335114326997443 0.1711846864181863 0
0.6080003930028961 0.2913798616255588 0
1.289504514392955 0.2666820423711542 0
0.4556208580382744 0.1637052998883209 0
0.8719496786055041 0.2599270954532401 0
0.5362253127782461 0.1194734266706788 0
1.128572727019104 0.1479345800210494 0
0.3115183983690462 0.1190609270413118 0
1.115149272162841 0.2671814280524649 0
0.8352886254185572 0.2759269000242851 0
1.302927969504869 0.1474351939739215 0
0.399388685126922 0.1545884806356779 0
0.4036828676714498 0.1303771922066858 0
0.8853708108329933 0.1406830950401467 0
1.165233569471129 0.1319351231122048 0
0.5643949696051784 0.1030236583424099 0
1.339588812034743 0.1314357369524495 0
1.371775169527307 0.1551852293967261 0
0.574824807471143 0.1690967603966903 0
1.078488429592682 0.2831808851324033 0
1.252843671862856 0.2826814993929533 0
0.2836147282958998 0.2486726581767796 0
0.3015149151897613 0.2580109644709517 0
0.2828835149116554 0.2716166197420413 0
0.3062498828568972 0.2897824844350832 0
1.285030029354811 0.3064309918381107 0
1.321690871884945 0.2904315348162617 0
0.5139348012254732 0.1370447523837593 0
0.5028659565062071 0.1056792800636292 0
0.4050956566706137 0.2344828472844345 0
0.3877079519299212 0.2453416062867108 0
0.922031196410337 0.1246843653187384 0
0.4071157422948451 0.2559939128656737 0
0.385671111803334 0.268412781588069 0
0.2977854868261962 0.15868336140906 0
1.37624965456475 0.1154362799307829 0
0.4101971755706958 0.2849773874648531 0
1.11067478677965 0.3069303780145915 0
1.133047211983855 0.1081856306602719 0
0.3790627978225072 0.3034609700425783 0
0.8675218770899417 0.2996126580232731 0
0.3355411777708167 0.2368404688293099 0
0.3496918080260629 0.1670231288002424 0
0.9041419122896954 0.283668482440988 0
0.4899000914135215 0.1825687742328237 0
1.096386369458352 0.1241850876757558 0
1.147335629367289 0.2909309209102087 0
0.556434853384542 0.2616135037295841 0
0.5435589948655998 0.296741382277749 0
0.5910126760773963 0.1291521187218148 0
0.2672636742944098 0.1831455106359417 0
0.8898447692337869 0.1009349815183769 0
0.8531481112319268 0.1168911478620701 0
0.1425429640877634 0.1668779054995815 0
0.1420752832790941 0.1465650120725979 0
0.1524806152541437 0.1297769376635255 0
0.1261361177370357 0.1325723680030962 0
0.1228175359639442 0.1587444125548122 0
0.1453726658099196 0.1076263472286311 0
0.1135200868590331 0.1011402404040622 0
0.2236100166175828 0.2627862169880419 0
0.2159323814904535 0.2814459905197469 0
0.195778067609116 0.2831472655734924 0
0.2085746131549754 0.298884906350409 0
0.1859832748448937 0.3118149275530315 0
0.2301443871973592 0.3024532480079061 0
0.1331862258301851 0.2063119877582514 0
0.1172354080870642 0.1938916059975594 0
0.1135559222707663 0.2134835639091152 0
0.09887518722893936 0.1986805672811851 0
0.08937456696814385 0.2212556626863935 0
0.1112626763200228 0.2411601243795745 0
0.2344055250909343 0.1426903827302714 0
0.2537769370166268 0.1372138575738181 0
0.2402906401200776 0.1236900767214197 0
0.2597093538824985 0.1201275407864274 0
0.2450391670119478 0.0983445468945021 0
1.307402454542203 0.1076862445081377 0
1.27074161201218 0.1236857015298244 0
0.5992642600369381 0.0909778640491974 0
0.1843548725388323 0.1356593436301334 0
0.1918377104634097 0.1192016595867538 0
0.2171094701988908 0.3242669272404926 0
0.3397381418739978 0.1012413338888998 0
0.03239871261519531 0.3536861468690135 0
0.09283306998544923 0.1298491375906451 0
0.8313038753657264 0.3145230178663114 0
0.7987076399807675 0.2917364310387134 0
0.3053476533211179 0.0828280318752135 0
0.06073643220111365 0.03466658007955285 0
0.413211008217123 0.3217800306636576 0
1.317135271693883 0.3301443396502198 0
1.353323957075803 0.3129382234496025 0
1.358259502364612 0.2742249438261898 0
1.390430491182104 0.2979399139424227 0
1.394979258148958 0.258357822395523 0
0.2108192628734582 0.1158492400535284 0
0.1975942540876665 0.09769258819082287 0
0.6325316710437753 0.118184609097859 0
0.4141092489239434 0.1034208643536932 0
0.5026610664650027 0.257937832271659 0
0.08434938755313535 0.2552322624930504 0
0.1106289666812301 0.2748868624170512 0
1.170415447237571 0.09380707951932228 0
1.202012310781591 0.116205817080535 0
1.206368897027038 0.07618671664128503 0
0.4237674929771572 0.2434908057528728 0
0.2664572371840771 0.1524585885874316 0
1.406956178957572 0.139019189581027 0
1.402967959001204 0.178822877244094 0
1.407760086221586 0.09820966556891225 0
1.073536743168946 0.3211636850672699 0
1.041787125853817 0.2990584498263961 0
1.100788438050603 0.344760789908778 0
0.9023709707014287 0.3207333570385433 0
0.9367131655830503 0.3069558269646249 0
0.102058684679383 0.1750374705667468 0
0.3847462016542353 0.3415299042995397 0
0.1755696849519623 0.2613855146287554 0
0.1545580619346888 0.2748557281541419 0
0.2770011223331698 0.3057036697606838 0
0.1454803340544342 0.2363751747030174 0
0.1419366089300625 0.2560174567842759 0
0.3534540587790266 0.2466522449738753 0
0.3742740839202168 0.1428767308964288 0
0.3810499701171164 0.1659689978902834 0
0.4559204473014378 0.09424542108004769 0
0.5799592220890715 0.321486924684681 0
0.6224404772304453 0.3254456460694183 0
0.6447239562017373 0.2947171345744414 0
0.5399999072014826 0.3311989541772549 0
0.6630137988931113 0.3375495107916971 0
0.6844593622407478 0.2978777737536191 0
0.6673101007012076 0.2598746566750069 0
0.05602859167737519 0.2307088619056344 0
1.248293595906659 0.3252733909962977 0
1.216170230845983 0.2991547801047758 0
1.212062069389376 0.3393439458705114 0
0.4756362279915633 0.1307290900772436 0
0.4916868579491953 0.06808216684058956 0
0.3118508853205855 0.3308613454680505 0
1.100543384678313 0.08683605399862986 0
1.063686835140847 0.1014593526765061 0
0.9259608580285876 0.08352998622880498 0
0.9586011885942365 0.1084507423345645 0
0.9622238953292637 0.06906364324021366 0
0.9940731401094461 0.09416863942398745 0
0.3364528166830028 0.2534287734945374 0
1.275216097049621 0.08393675206388697 0
0.7943804690674704 0.3362430799752855 0
0.7584891642304331 0.3055417706879301 0
0.7107565530983676 0.1433320545530377 0
0.7475748784979026 0.1255805670942155 0
0.7146537238772402 0.1026584839293597 0
0.7506295529628833 0.08736960936819882 0
0.7839939253738972 0.1095157756385217 0
0.7197401393634848 0.06439650877850869 0
0.6831079854329465 0.07784078471918811 0
0.07132588894120406 0.2907124394606271 0
0.1098745218032264 0.3144689074186514 0
0.6339226131866413 0.3649277000980299 0
0.5685434751333061 0.06718522296461836 0
0.6060495435735778 0.05423741253038653 0
1.311951654554075 0.06810057961917326 0
1.241448672964564 0.05898568435089382 0
0.5060497081221714 0.1719767946288121 0
0.07487063379752978 0.3394416066893436 0
1.282276666665427 0.3484110069877864 0
0.7010709343415219 0.3324098511529676 0
1.38585565719669 0.3385960194383685 0
1.423235671304447 0.3207304024648447 0
0.6746940644937054 0.1225344416482807 0
0.5071885074098577 0.2898563868369768 0
0.4800448041064203 0.3182499465215656 0
0.6370213590507953 0.07634182006185682 0
1.377525713110982 0.07094556356594628 0
0.07080773014994579 0.1911462756012891 0
0.70756703336501 0.2652702184146001 0
0.8923614234327806 0.06086785546049627 0
0.3554741233478131 0.2713904410848385 0
0.1684741538534428 0.1196892711812183 0
0.4512243516666543 0.05657756860690235 0
0.1712196079279821 0.09172735551272564 0
0.1981291353201509 0.06776363638548008 0
0.7298319322846257 0.3632914049741856 0
0.07648875863871812 0.09933244943865133 0
0.09710356079896457 0.06546522072999882 0
1.44095427619178 0.1641482823890254 0
1.319292835465397 0.3721871370563645 0
0.05819860690205523 0.129656546332409 0
0.4007466366759736 0.1751830025336097 0
0.6251998116341684 0.2665266290133803 0
0.6100400561486606 0.1875925680651267 0
0.6079375039091978 0.1709327269253267 0
0.6157112679836587 0.1516082485234435 0
0.6455131353089898 0.1542471095342036 0
0.5917475694085882 0.1812250602748336 0
0.3755502053532181 0.1113589183220892 0
0.3661326468900774 0.0730751222146885 0
0.4771765611418325 0.1559590868629764 0
0.2990517514150168 0.1783049113405621 0
0.7797971100557541 0.1490658335564619 0
0.3179137096840227 0.227437696089529 0
0.7674047406241764 0.2650888861315174 0
0.4220570415806039 0.2236902906873996 0
0.8164394107332102 0.1328798166430437 0
0.8214218086086336 0.09445255863638781 0
0.8575881151614366 0.07713361912683887 0
0.3506730380898598 0.1870143166329862 0
0.9408611239473293 0.2675998075262494 0
0.9730571664318043 0.2913378262425445 0
0.9697232259100974 0.3310500625400496 0
1.005215220215374 0.31509556605034 0
1.003387829900074 0.353931961997331 0
0.9774548686975078 0.2516813707810648 0
0.3701780468074796 0.2357751889540284 0
0.3704970585335149 0.2535144525775043 0
0.8486924752106186 0.1566578609054014 0
0.9086216915695535 0.2439139423920517 0
0.8033517790910416 0.2515319446228618 0
0.9906499285313743 0.1326426278376301 0
1.027202294888914 0.1168875447967413 0
1.028385107991406 0.07245236057434094 0
1.022970487702757 0.1562940805872857 0
0.9541644614246123 0.1484293425836941 0
0.4550145585221507 0.1830852817622809 0
1.138489655745266 0.06790317602468217 0
1.362805280978023 0.2346361396043266 0
1.046295330955629 0.2594110747304204 0
1.398565481932206 0.2185606518926106 0
1.434044473642221 0.241644729528046 0
1.23831139321952 0.09978097170299799 0
1.091911885715297 0.1639340352433944 0
1.326146501835255 0.2506402315677359 0
1.266267126977129 0.1634346509923116 0
0.5075295507104919 0.2320514061724052 0
0.5247903933815314 0.2418839792457587 0
0.5429405924456834 0.2295178316693013 0
0.5596222677833229 0.2388866532211356 0
0.5241327801086251 0.1804856952156511 0
1.143877792676053 0.336962949079162 0
1.367300684489799 0.1949341788627636 0
0.4725780924211254 0.1925400800111928 0
1.344063297072193 0.09168678748649708 0
1.234080769482123 0.1396851585515629 0
1.220655214630833 0.2590109775516409 0
1.197439576778734 0.1557296406950369 0
1.151810114546527 0.2511819712398245 0
1.427198914437433 0.2821821132173455 0
1.183994022184328 0.2750235962828227 0
1.179521986802219 0.3146804134371907 0
1.059568153344952 0.1404489312272795 0
1.009647863079783 0.2754037382080697 0
0.7874902701688909 0.06763361796135992 0
0.4140418152351358 0.35828723749247 0
1.205195929450915 0.03563492672367175 0
1.398338618117234 0.03398781715540855 0
1.046781722083254 0.03367595803874391 0
0.8096197919729302 0.0328578363370973 0
0.2157314057040453 0.3789288229872708 0
0.1378973647043046 0.3768089998621101 0
0.1516882381997884 0.3339073889639129 0
0.534527809538219 0.3728924252348361 0
0.5031088313848781 0.3481976418023964 0
0.2953308237490613 0.3750578712161221 0
0.6915361690199229 0.03432808204152295 0
0.3757628993407421 0.0337464347558657 0
0.2171394924263519 0.03286855752240384 0
0.2994219529642145 0.04050370500722845 0
0.967383706641245 0.3747611946958291 0
0.8868695975164852 0.3775224863159904 0
0.8092105263176194 0.3758147866928778 0
1.401315789474687 0.3758147866930299 0
0.5207537374668344 0.1604385431323375 0
0.532593240506348 0.08351115089060424 0
0.2670042128406008 0.2378718803960546 0
0.8675780021232707 0.3413908383491475 0
0.719888142390009 0.300288738037292 0
0.4440629705662545 0.2962436034342308 0
0.6129221640856539 0.2464139793628737 0
1.20298910796908 0.37628531559431 0
0.6577077789724961 0.2238479884128479 0
1.46202296885457 0.3150105802758119 0
0.03514572734005783 0.3161703352002642 0
1.468806614692551 0.09535879434175686 0
1.038201082498436 0.336781871620597 0
0.2796712646836966 0.1692000693535625 0
0.1357160678376692 0.2951632420667211 0
0.4916740444880681 0.2414641561404264 0
1.473500271882465 0.2417703937025802 0
0.1776315789466413 0.03258994108150812 0
0.4398387560323197 0.2324324411431993 0
1.124999999998563 0.03251786334890874 0
0.3362719461085617 0.3007294777652463 0
0.2831007554832271 0.1886246124495548 0
1.084208120906492 0.378696282057723 0
1.322724982849448 0.03218903267435558 0
0.5279473659334832 0.2652221287310589 0
0.1376520675898564 0.07401939991399983 0
0.9690850501939661 0.03271797263653941 0
0.4859239257267118 0.03119910696277379 0
1.469737624525385 0.0571311113836391 0
0.03132942238447853 0.05628298274237518 0
1.470608328676632 0.3529007843078682 0
0.4736055766987231 0.1740853441583341 0
0.03083722323513974 0.205362896125139 0
0.3759080556041521 0.3772764184076635 0
1.124093538270799 0.3767427028545765 0
0.05941675610363692 0.3782048872764319 0
0.1290611488783942 0.2252299737699621 0
0.5757193961961797 0.189172805451461 0
0.5940351017836306 0.1989025404839222 0
0.5748177672095771 0.03053076699320302 0
0.7365237721058684 0.2413444965805324 0
0.4458788502695753 0.3376084885604154 0
0.2744748254243226 0.3451939300185786 0
1.428552158663727 0.2015577171868154 0
1.438431579941583 0.078712236897222 0
1.071881812473514 0.06347453006955668 0
0.09851030262739989 0.02706338206885097 0
0.5979233032720073 0.3545551936574916 0
0.3486071404414139 0.3401392969758734 0
0.3185998009458607 0.2468720621845831 0
0.4403074471881599 0.2490762884222383 0
0.2351981089880463 0.06557681820310034 0
0.2711474318826643 0.07143644284810888 0
0.3841850223021724 0.1861286039485973 0
0.122425717285295 0.1771044188424074 0
0.730788298320226 0.02947423056151175 0
0.4928945764200887 0.3807636514058118 0
0.758134752245483 0.3421456866644769 0
0.935409135335785 0.3425730443421351 0
0.2214858487442512 0.1307367412215725 0
0.2737938518955857 0.134842008134555 0
0.02660469996082546 0.13025309731965 0
0.2638345348220577 0.2568979259827991 0
0.2429504579232643 0.2599076375113816 0
0.2584597298295804 0.2786910281498755 0
0.2366744557044195 0.2805880550922876 0
0.1184210526319109 0.3477214803645932 0
1.475356693582759 0.1677409833854504 0
0.890003402239406 0.02698474687004904 0
0.2491555613529119 0.3240621521495487 0
0.06047110724441195 0.07044206732194361 0
0.5751314487238317 0.149203490327103 0
0.5927275455956359 0.1585364008615353 0
0.1740119714945159 0.283357476440192 0
0.3664230607334226 0.1772412634754727 0
0.8302314166804101 0.3487573019152997 0
1.347489965339186 0.345936101257468 0
0.8287538427280535 0.06089213721913742 0
0.4974823891005514 0.1538003015462564 0
0.2829616049442059 0.1086680444860567 0
0.3305858364653023 0.06651930716998236 0
0.1973014135092475 0.3464132041731748 0
0.4276943971520345 0.2641041096205121 0
1.180312337895431 0.3472942252475179 0
1.282467906566789 0.3832292140857497 0
1.437141215393838 0.1207787343718637 0
0.02788558062928196 0.2432174451885576 0
0.3511863836897232 0.1465017380843087 0
0.2578250870792643 0.1692917708404756 0
0.3257605808553161 0.2700357005725401 0
0.4201680099008058 0.06915414299367047 0
0.4526361004135774 0.02454570111681771 0
1.342750149895935 0.05978149193873949 0
1.006578947369432 0.3856864789033561 0
0.2218734928947117 0.09487235049633276 0
0.1603915228623112 0.2998197526355999 0
1.177939738064412 0.06193370988832129 0
0.6078798001261168 0.3846880147167607 0
0.1902173307734135 0.2679665108672872 0
0.07800256554388224 0.1576032961542177 0
1.06760208042787 0.3514138698930067 0
0.9931826063414514 0.0619417871295079 0
1.243172564126954 0.02477269394776117 0
0.1330921909446435 0.271587511303658 0
0.2824144281561426 0.1514845559070074 0
0.2947378094863065 0.1367751526880347 0
0.4564011884519233 0.1464654722956253 0
1.420748801145168 0.3516177299543362 0
0.7324772529185739 0.3287791816144642 0
1.409656424178601 0.06366746882893592 0
0.364590843399313 0.1584536414385256 0
0.1674700373523441 0.1363185663370912 0
0.7379745705430993 0.2755068219703744 0
0.6602875128996964 0.3807703309033478 0
0.6118421052607745 0.02257381396352752 0
0.02752010706051605 0.3831207691132675 0
1.473623729692418 0.3836557176618878 0
0.02739306172871162 0.02674468352007869 0
1.472606938271348 0.02674468351985607 0
0.9073481152385605 0.3525726014212194 0
0.2359321556018852 0.3513077864731591 0
0.2279016823288893 0.1126985910774711 0
0.6568387700053056 0.09872541388179613 0
0.4735451884677605 0.3531361005202419 0
0.3534357259529975 0.1239003504983884 0
0.1643950977739559 0.06025708848568337 0
0.4895572748268097 0.1673853408305747 0
0.7508667769064951 0.05594217020839779 0
0.1043695947819389 0.1507613369739036 0
0.1300724035044961 0.2431593993465861 0
0.125398569276091 0.2573622708462291 0
1.106192111475546 0.05534405415723088 0
0.3937371797027486 0.0594854297365016 0
0.05552223247502192 0.2614093270054346 0
0.2561065570635289 0.2294320892121701 0
0.2534814906588073 0.3008352570599383 0
0.5650309689225897 0.3511060100968714 0
0.5420484289386146 0.2467891343174327 0
0.3911073905573681 0.08723172820513798 0
0.4143120918141959 0.388799058615778 0
1.445390468465306 0.3397426241804284 0
0.5143601684489765 0.318265261441488 0
$EndNodes
$Elements
14 1372 1 1372
0 1 15 1
1 1 
0 2 15 1
2 2 
0 3 15 1
3 3 
0 4 15 1
4 4 
0 6 15 1
5 5 
0 7 15 1
6 6 
1 1 1 38
7 1 8 
8 8 9 
9 9 10 
10 10 11 
11 11 12 
12 12 13 
13 13 14 
14 14 15 
15 15 16 
16 16 17 
17 17 18 
18 18 19 
19 19 20 
20 20 21 
21 21 22 
22 22 23 
23 23 24 
24 24 25 
25 25 26 
26 26 27 
27 27 28 
28 28 29 
29 29 30 
30 30 31 
31 31 32 
32 32 33 
33 33 34 
34 34 35 
35 35 36 
36 36 37 
37 37 38 
38 38 39 
39 39 40 
40 40 41 
41 41 42 
42 42 43 
43 43 44 
44 44 2 
1 2 1 11
45 2 45 
46 45 46 
47 46 47 
48 47 48 
49 48 49 
50 49 50 
51 50 51 
52 51 52 
53 52 53 
54 53 54 
55 54 3 
1 3 1 38
56 3 55 
57 55 56 
58 56 57 
59 57 58 
60 58 59 
61 59 60 
62 60 61 
63 61 62 
64 62 63 
65 63 64 
66 64 65 
67 65 66 
68 66 67 
69 67 68 
70 68 69 
71 69 70 
72 70 71 
73 71 72 
74 72 73 
75 73 74 
76 74 75 
77 75 76 
78 76 77 
79 77 78 
80 78 79 
81 79 80 
82 80 81 
83 81 82 
84 82 83 
85 83 84 
86 84 85 
87 85 86 
88 86 87 
89 87 88 
90 88 89 
91 89 90 
92 90 91 
93 91 4 
1 4 1 11
94 4 92 
95 92 93 
96 93 94 
97 94 95 
98 95 96 
99 96 97 
100 97 98 
101 98 99 
102 99 100 
103 100 101 
104 101 1 
1 5 1 8
105 5 102 
106 102 103 
107 103 104 
108 104 105 
109 105 106 
110 106 107 
111 107 108 
112 108 6 
1 6 1 8
113 6 109 
114 109 110 
115 110 111 
116 111 112 
117 112 113 
118 113 114 
119 114 115 
120 115 7 
1 7 1 1
121 7 5 
2 1 2 1251
122 73 74 453 
123 318 463 614 
124 400 146 655 
125 122 426 443 
126 409 136 533 
127 329 103 605 
128 146 400 437 
129 404 120 406 
130 530 428 556 
131 335 108 578 
132 120 404 436 
133 428 530 608 
134 408 125 543 
135 297 395 408 
136 509 144 576 
137 125 408 569 
138 426 122 534 
139 412 147 414 
140 206 402 460 
141 325 326 670 
142 439 517 551 
143 369 504 505 
144 367 440 464 
145 211 178 459 
146 468 272 648 
147 103 131 605 
148 126 447 476 
149 402 228 446 
150 395 297 407 
151 530 556 637 
152 136 409 590 
153 108 390 578 
154 463 367 464 
155 517 151 551 
156 317 233 396 
157 233 270 396 
158 119 418 540 
159 393 280 394 
160 119 73 453 
161 350 449 451 
162 272 468 573 
163 447 126 610 
164 407 296 620 
165 130 417 433 
166 284 274 543 
167 427 435 552 
168 429 400 655 
169 280 211 459 
170 308 386 590 
171 562 308 590 
172 357 537 622 
173 143 427 552 
174 74 146 453 
175 417 130 432 
176 228 402 550 
177 499 151 517 
178 402 206 550 
179 141 454 458 
180 147 412 447 
181 341 113 601 
182 322 139 596 
183 340 337 578 
184 435 142 577 
185 491 128 526 
186 118 499 585 
187 431 122 443 
188 499 118 558 
189 455 155 567 
190 542 434 620 
191 151 499 558 
192 155 455 588 
193 274 297 543 
194 376 555 630 
195 142 435 608 
196 318 367 463 
197 382 509 576 
198 104 103 329 
199 6 108 335 
200 106 105 387 
201 114 113 341 
202 135 58 457 
203 445 403 574 
204 394 280 459 
205 530 333 623 
206 178 176 459 
207 409 533 584 
208 504 369 557 
209 339 403 445 
210 353 435 577 
211 123 482 554 
212 134 322 323 
213 140 349 350 
214 390 133 391 
215 444 148 525 
216 433 374 524 
217 467 138 535 
218 374 433 500 
219 333 332 351 
220 456 118 585 
221 133 388 391 
222 435 353 552 
223 418 119 599 
224 586 553 627 
225 414 147 568 
226 426 422 440 
227 234 204 461 
228 125 430 543 
229 544 290 604 
230 144 509 625 
231 326 322 596 
232 406 120 549 
233 408 450 569 
234 537 138 622 
235 433 417 500 
236 537 357 594 
237 404 294 436 
238 294 360 436 
239 296 221 542 
240 141 458 603 
241 118 456 609 
242 482 123 635 
243 138 467 622 
244 58 59 457 
245 455 358 588 
246 385 326 596 
247 128 491 643 
248 7 115 630 
249 213 316 507 
250 369 210 557 
251 134 110 322 
252 109 139 322 
253 140 112 349 
254 107 133 390 
255 430 284 543 
256 430 125 581 
257 206 203 550 
258 468 407 620 
259 345 594 621 
260 122 431 656 
261 333 351 623 
262 387 105 640 
263 358 455 612 
264 333 530 637 
265 569 450 633 
266 480 538 600 
267 76 429 655 
268 440 226 464 
269 196 579 580 
270 379 586 627 
271 555 319 630 
272 146 437 453 
273 157 445 574 
274 429 76 639 
275 422 420 440 
276 441 317 683 
277 399 531 532 
278 331 615 640 
279 450 395 632 
280 317 399 683 
281 230 407 648 
282 113 140 601 
283 420 226 440 
284 575 136 590 
285 135 438 541 
286 319 7 630 
287 395 368 632 
288 465 287 614 
289 408 395 450 
290 317 396 399 
291 396 270 397 
292 297 296 407 
293 388 615 637 
294 436 360 457 
295 462 465 614 
296 111 134 653 
297 349 111 653 
298 480 482 538 
299 539 545 661 
300 425 426 534 
301 445 157 641 
302 386 575 590 
303 208 228 550 
304 448 562 631 
305 539 150 545 
306 435 428 608 
307 366 350 451 
308 157 458 641 
309 207 204 234 
310 386 523 575 
311 375 298 473 
312 225 547 624 
313 528 623 662 
314 297 408 543 
315 538 121 600 
316 134 323 324 
317 323 322 326 
318 140 350 365 
319 350 349 449 
320 540 418 617 
321 161 116 563 
322 579 465 580 
323 227 226 420 
324 623 351 662 
325 432 130 565 
326 344 345 621 
327 367 348 443 
328 230 223 281 
329 439 551 682 
330 388 556 645 
331 338 339 445 
332 371 340 672 
333 416 448 631 
334 5 7 116 
335 148 444 634 
336 303 216 469 
337 444 525 651 
338 443 426 664 
339 124 495 561 
340 452 593 636 
341 135 457 618 
342 438 135 618 
343 397 270 398 
344 615 387 640 
345 204 202 461 
346 446 228 582 
347 616 311 652 
348 545 383 661 
349 234 461 462 
350 427 143 675 
351 433 524 644 
352 454 141 612 
353 452 536 593 
354 175 177 473 
355 397 398 400 
356 321 475 476 
357 239 474 486 
358 522 145 527 
359 292 389 606 
360 462 461 465 
361 321 474 475 
362 177 180 473 
363 298 175 473 
364 474 321 486 
365 239 470 474 
366 447 320 476 
367 320 321 476 
368 165 168 471 
369 421 424 470 
370 216 166 469 
371 397 400 429 
372 400 398 401 
373 166 164 469 
374 235 421 470 
375 214 471 591 
376 168 310 471 
377 470 424 474 
378 163 165 471 
379 400 401 437 
380 401 398 402 
381 236 235 470 
382 401 402 446 
383 472 237 488 
384 474 424 475 
385 172 169 477 
386 237 238 488 
387 169 167 477 
388 282 243 486 
389 321 282 486 
390 215 311 477 
391 243 240 486 
392 251 497 521 
393 278 356 488 
394 483 251 521 
395 248 251 483 
396 247 248 483 
397 356 472 488 
398 381 481 521 
399 478 247 483 
400 497 381 521 
401 241 278 488 
402 247 478 487 
403 171 174 484 
404 312 273 487 
405 174 299 484 
406 478 312 487 
407 170 171 484 
408 273 242 487 
409 244 247 487 
410 242 244 487 
411 253 250 492 
412 411 490 491 
413 250 249 492 
414 489 249 493 
415 249 489 492 
416 490 411 520 
417 492 490 520 
418 253 492 520 
419 249 246 493 
420 246 245 493 
421 501 253 520 
422 413 489 493 
423 300 413 493 
424 188 272 494 
425 378 498 510 
426 417 347 500 
427 179 188 494 
428 498 496 510 
429 268 496 502 
430 288 381 497 
431 307 410 495 
432 496 268 510 
433 198 213 507 
434 186 183 511 
435 195 198 507 
436 255 288 497 
437 279 267 503 
438 266 268 502 
439 314 275 501 
440 275 257 501 
441 347 279 503 
442 271 266 502 
443 373 513 515 
444 513 263 515 
445 219 508 542 
446 500 347 513 
447 496 362 502 
448 183 181 511 
449 189 434 508 
450 439 363 517 
451 363 364 517 
452 257 254 501 
453 313 186 511 
454 267 264 503 
455 508 434 542 
456 192 195 506 
457 187 191 504 
458 255 277 288 
459 405 404 406 
460 372 307 495 
461 373 374 500 
462 347 503 513 
463 364 362 496 
464 360 295 361 
465 361 362 363 
466 377 304 379 
467 259 283 515 
468 307 275 314 
469 346 279 347 
470 288 306 380 
471 504 191 505 
472 198 199 200 
473 506 195 507 
474 195 196 198 
475 380 306 382 
476 307 314 410 
477 306 315 509 
478 255 254 256 
479 265 264 266 
480 289 404 405 
481 192 190 193 
482 294 271 295 
483 283 275 307 
484 346 347 417 
485 490 415 491 
486 182 184 209 
487 286 377 378 
488 286 378 510 
489 189 313 434 
490 203 202 204 
491 266 264 267 
492 379 304 444 
493 378 377 456 
494 262 260 263 
495 264 263 503 
496 361 295 362 
497 364 496 498 
498 184 183 185 
499 252 254 255 
500 283 373 515 
501 185 186 187 
502 285 279 346 
503 288 380 381 
504 187 186 189 
505 190 189 508 
506 191 190 192 
507 194 193 197 
508 306 277 315 
509 189 186 313 
510 198 196 199 
511 200 199 201 
512 255 256 277 
513 363 362 364 
514 182 183 184 
515 185 183 186 
516 256 254 257 
517 258 261 516 
518 197 220 287 
519 198 200 213 
520 201 199 202 
521 269 286 510 
522 265 266 271 
523 289 271 294 
524 286 304 377 
525 182 181 183 
526 195 194 196 
527 201 202 203 
528 268 267 269 
529 261 260 262 
530 295 271 502 
531 258 257 259 
532 364 498 499 
533 197 219 220 
534 259 275 283 
535 269 279 285 
536 288 277 306 
537 188 212 272 
538 262 264 265 
539 269 285 286 
540 256 257 258 
541 262 263 264 
542 265 271 289 
543 444 304 512 
544 187 189 190 
545 193 190 508 
546 362 295 502 
547 346 432 512 
548 187 190 191 
549 184 185 557 
550 185 187 504 
551 192 194 195 
552 197 193 219 
553 346 417 432 
554 180 181 182 
555 188 211 212 
556 254 253 501 
557 294 295 360 
558 286 285 304 
559 289 294 404 
560 192 193 194 
561 489 415 490 
562 361 363 438 
563 373 372 374 
564 259 257 275 
565 382 306 509 
566 185 504 557 
567 258 260 261 
568 410 314 411 
569 181 179 494 
570 219 193 508 
571 516 261 518 
572 269 267 279 
573 266 267 268 
574 258 259 260 
575 489 490 492 
576 283 307 372 
577 364 499 517 
578 181 494 511 
579 268 269 510 
580 191 192 506 
581 304 285 512 
582 373 500 513 
583 252 253 254 
584 505 191 506 
585 438 363 439 
586 283 372 373 
587 262 265 514 
588 503 263 513 
589 413 415 489 
590 252 255 497 
591 265 289 514 
592 261 262 514 
593 285 346 512 
594 260 259 515 
595 263 260 515 
596 480 481 482 
597 289 405 514 
598 252 250 253 
599 188 178 211 
600 180 179 181 
601 256 258 516 
602 514 405 518 
603 251 252 497 
604 261 514 518 
605 315 277 516 
606 315 516 518 
607 277 256 516 
608 413 414 415 
609 509 315 519 
610 518 405 519 
611 480 479 481 
612 251 250 252 
613 179 178 188 
614 315 518 519 
615 405 406 519 
616 177 179 180 
617 479 478 483 
618 413 412 414 
619 384 479 480 
620 248 250 251 
621 177 178 179 
622 412 320 447 
623 356 419 472 
624 248 249 250 
625 384 478 479 
626 300 412 413 
627 177 176 178 
628 356 418 419 
629 320 282 321 
630 384 312 478 
631 300 320 412 
632 248 246 249 
633 175 176 177 
634 174 298 299 
635 383 312 384 
636 245 300 493 
637 356 355 418 
638 300 282 320 
639 247 246 248 
640 174 175 298 
641 175 173 176 
642 245 282 300 
643 278 355 356 
644 309 312 383 
645 244 246 247 
646 174 173 175 
647 314 501 520 
648 278 309 355 
649 244 245 246 
650 245 243 282 
651 309 273 312 
652 171 173 174 
653 411 314 520 
654 244 243 245 
655 278 273 309 
656 392 170 484 
657 171 172 173 
658 241 273 278 
659 242 243 244 
660 171 169 172 
661 310 170 392 
662 242 240 243 
663 241 242 273 
664 481 479 521 
665 168 170 310 
666 215 217 311 
667 170 169 171 
668 479 483 521 
669 241 240 242 
670 238 241 488 
671 168 169 170 
672 215 216 217 
673 240 239 486 
674 238 240 241 
675 425 422 426 
676 168 167 169 
677 167 215 477 
678 215 166 216 
679 238 239 240 
680 239 236 470 
681 423 422 425 
682 421 423 424 
683 167 166 215 
684 165 167 168 
685 238 236 239 
686 421 422 423 
687 165 166 167 
688 237 236 238 
689 421 420 422 
690 165 164 166 
691 448 308 562 
692 229 236 237 
693 235 420 421 
694 162 214 290 
695 214 163 471 
696 163 164 165 
697 235 227 420 
698 229 235 236 
699 162 163 214 
700 163 161 164 
701 531 399 678 
702 424 423 522 
703 475 424 522 
704 348 431 443 
705 471 310 591 
706 222 318 613 
707 229 227 235 
708 200 201 548 
709 162 161 163 
710 116 319 563 
711 575 523 681 
712 160 162 544 
713 386 359 523 
714 394 459 595 
715 355 309 545 
716 348 430 431 
717 491 526 587 
718 317 441 566 
719 57 58 135 
720 26 27 145 
721 37 38 524 
722 28 29 126 
723 30 31 147 
724 43 44 158 
725 27 28 527 
726 32 33 128 
727 36 37 124 
728 41 42 148 
729 34 35 149 
730 39 40 130 
731 33 34 526 
732 42 43 525 
733 65 66 123 
734 74 75 146 
735 78 79 531 
736 85 86 153 
737 87 88 156 
738 89 90 142 
739 62 63 144 
740 83 84 136 
741 77 78 127 
742 80 81 117 
743 84 85 533 
744 86 87 528 
745 88 89 529 
746 60 61 120 
747 56 57 541 
748 10 11 155 
749 24 25 534 
750 23 24 122 
751 16 17 535 
752 20 21 125 
753 15 16 138 
754 17 18 129 
755 14 15 537 
756 72 73 119 
757 13 14 154 
758 8 9 358 
759 68 69 121 
760 70 71 150 
761 67 68 538 
762 71 72 540 
763 69 70 539 
764 12 13 536 
765 55 56 159 
766 437 401 546 
767 368 281 466 
768 221 219 542 
769 220 219 221 
770 427 428 435 
771 131 544 604 
772 228 227 229 
773 440 367 664 
774 160 161 162 
775 156 529 530 
776 137 330 331 
777 336 335 337 
778 388 387 615 
779 342 341 343 
780 132 342 376 
781 162 290 544 
782 309 383 545 
783 482 481 554 
784 381 380 554 
785 296 542 620 
786 203 205 550 
787 43 158 525 
788 124 37 524 
789 34 149 526 
790 128 33 526 
791 148 42 525 
792 28 126 527 
793 127 78 531 
794 85 153 533 
795 89 142 529 
796 156 88 529 
797 87 156 528 
798 136 84 533 
799 153 86 528 
800 145 27 527 
801 57 135 541 
802 122 24 534 
803 138 16 535 
804 17 129 535 
805 15 138 537 
806 154 14 537 
807 72 119 540 
808 68 121 538 
809 70 150 539 
810 150 71 540 
811 121 69 539 
812 13 154 536 
813 159 56 541 
814 495 124 638 
815 218 216 303 
816 401 446 546 
817 547 442 583 
818 308 359 386 
819 182 209 560 
820 147 447 610 
821 62 144 549 
822 120 61 549 
823 120 436 626 
824 473 180 560 
825 375 473 560 
826 536 452 559 
827 472 419 654 
828 61 62 549 
829 301 298 375 
830 555 376 646 
831 318 348 367 
832 348 284 430 
833 287 465 579 
834 324 327 449 
835 461 202 580 
836 164 161 563 
837 481 381 554 
838 562 293 631 
839 302 308 448 
840 328 454 455 
841 454 354 458 
842 419 546 654 
843 230 368 395 
844 230 395 407 
845 494 272 573 
846 313 511 573 
847 223 211 280 
848 201 203 206 
849 426 440 664 
850 450 129 633 
851 155 11 559 
852 12 536 559 
853 303 469 555 
854 152 456 627 
855 149 35 561 
856 36 124 561 
857 427 371 428 
858 201 206 548 
859 208 227 228 
860 465 461 580 
861 459 176 595 
862 90 91 577 
863 197 287 579 
864 196 194 579 
865 199 196 580 
866 394 595 616 
867 368 466 680 
868 228 229 582 
869 328 455 567 
870 237 472 582 
871 65 123 564 
872 160 116 161 
873 41 148 565 
874 130 40 565 
875 52 53 551 
876 99 100 141 
877 97 98 157 
878 51 52 151 
879 49 50 118 
880 92 93 353 
881 93 94 552 
882 94 95 143 
883 46 47 553 
884 47 48 152 
885 287 220 613 
886 147 31 568 
887 32 128 568 
888 130 433 644 
889 20 125 569 
890 230 281 368 
891 116 7 319 
892 5 116 160 
893 402 398 460 
894 389 293 409 
895 137 329 330 
896 139 335 336 
897 133 387 388 
898 132 341 342 
899 180 182 560 
900 499 498 585 
901 378 456 585 
902 83 136 575 
903 144 63 576 
904 525 158 651 
905 11 12 559 
906 410 411 587 
907 35 36 561 
908 102 5 676 
909 466 352 467 
910 158 586 651 
911 394 616 652 
912 125 21 581 
913 176 173 595 
914 110 109 322 
915 112 111 349 
916 111 110 134 
917 103 102 131 
918 109 6 139 
919 105 104 137 
920 107 106 133 
921 113 112 140 
922 108 107 390 
923 115 114 132 
924 389 409 584 
925 391 388 645 
926 522 527 619 
927 396 397 589 
928 409 293 562 
929 359 547 583 
930 206 460 548 
931 209 184 210 
932 210 184 557 
933 50 51 558 
934 469 164 563 
935 431 430 581 
936 231 442 547 
937 532 531 598 
938 383 384 600 
939 366 452 636 
940 10 155 588 
941 358 9 588 
942 131 604 605 
943 64 65 564 
944 154 537 594 
945 40 41 565 
946 354 325 670 
947 139 6 335 
948 137 104 329 
949 133 106 387 
950 132 114 341 
951 594 357 621 
952 345 593 594 
953 606 389 677 
954 31 32 568 
955 477 311 616 
956 475 522 619 
957 19 20 569 
958 234 462 463 
959 511 494 573 
960 425 534 597 
961 361 438 618 
962 343 341 601 
963 26 145 597 
964 534 25 597 
965 217 216 218 
966 313 573 668 
967 80 117 598 
968 531 79 598 
969 506 507 679 
970 553 152 627 
971 319 555 563 
972 555 469 563 
973 509 519 625 
974 456 377 627 
975 339 337 340 
976 530 529 608 
977 458 157 603 
978 126 476 619 
979 369 505 566 
980 82 83 575 
981 337 335 578 
982 63 64 576 
983 126 29 610 
984 30 147 610 
985 64 564 576 
986 444 512 634 
987 393 394 652 
988 456 152 609 
989 372 495 638 
990 142 90 577 
991 308 305 359 
992 491 415 643 
993 522 423 669 
994 151 52 551 
995 353 93 552 
996 94 143 552 
997 47 152 553 
998 145 522 669 
999 5 160 676 
1000 194 197 579 
1001 45 46 570 
1002 100 101 571 
1003 53 54 572 
1004 564 382 576 
1005 202 199 580 
1006 407 468 648 
1007 119 453 599 
1008 96 97 574 
1009 60 120 626 
1010 457 360 618 
1011 75 76 655 
1012 21 22 581 
1013 51 151 558 
1014 118 50 558 
1015 129 18 633 
1016 229 237 582 
1017 330 329 607 
1018 410 587 673 
1019 528 156 623 
1020 123 66 635 
1021 67 538 635 
1022 359 305 547 
1023 77 127 639 
1024 524 374 638 
1025 39 130 644 
1026 524 38 644 
1027 367 443 664 
1028 117 81 681 
1029 23 122 656 
1030 523 117 681 
1031 538 482 635 
1032 225 231 547 
1033 141 100 571 
1034 551 53 572 
1035 46 553 570 
1036 418 355 617 
1037 97 157 574 
1038 311 217 629 
1039 573 468 668 
1040 523 359 583 
1041 117 523 583 
1042 318 284 348 
1043 498 378 585 
1044 352 276 357 
1045 419 418 599 
1046 547 305 624 
1047 411 491 587 
1048 397 429 589 
1049 205 208 550 
1050 592 225 624 
1051 129 450 632 
1052 91 4 657 
1053 141 571 612 
1054 127 531 678 
1055 9 10 588 
1056 533 153 584 
1057 380 382 642 
1058 44 2 660 
1059 1 8 659 
1060 3 55 658 
1061 231 210 369 
1062 526 149 587 
1063 329 605 607 
1064 568 128 643 
1065 4 92 657 
1066 457 59 626 
1067 299 298 301 
1068 173 172 595 
1069 409 562 590 
1070 101 1 659 
1071 54 3 658 
1072 2 45 660 
1073 231 441 442 
1074 328 354 454 
1075 431 581 656 
1076 331 333 615 
1077 613 318 614 
1078 607 606 677 
1079 560 209 592 
1080 158 570 586 
1081 324 449 653 
1082 541 438 649 
1083 222 284 318 
1084 274 221 296 
1085 605 606 607 
1086 316 317 566 
1087 536 154 593 
1088 281 280 393 
1089 19 569 633 
1090 390 391 671 
1091 99 141 603 
1092 157 98 603 
1093 436 457 626 
1094 49 118 609 
1095 152 48 609 
1096 140 365 601 
1097 25 26 597 
1098 549 144 625 
1099 287 613 614 
1100 79 80 598 
1101 132 376 630 
1102 370 340 371 
1103 396 589 678 
1104 139 336 596 
1105 384 480 600 
1106 595 172 616 
1107 370 371 427 
1108 438 439 649 
1109 355 545 617 
1110 82 575 681 
1111 208 226 227 
1112 587 149 673 
1113 124 524 638 
1114 127 589 639 
1115 406 549 625 
1116 442 532 665 
1117 143 95 628 
1118 414 568 643 
1119 392 484 485 
1120 484 299 485 
1121 382 564 642 
1122 581 22 656 
1123 545 150 617 
1124 570 553 586 
1125 290 292 604 
1126 29 30 610 
1127 375 560 592 
1128 105 137 640 
1129 339 370 403 
1130 529 142 608 
1131 328 325 354 
1132 336 385 596 
1133 212 211 223 
1134 213 233 316 
1135 629 393 652 
1136 455 454 612 
1137 584 153 662 
1138 453 437 650 
1139 172 477 616 
1140 556 388 637 
1141 546 419 650 
1142 98 99 603 
1143 292 293 389 
1144 467 352 622 
1145 48 49 609 
1146 451 327 567 
1147 379 444 651 
1148 327 328 567 
1149 441 369 566 
1150 583 442 665 
1151 360 361 618 
1152 532 442 683 
1153 593 154 594 
1154 476 475 619 
1155 234 463 464 
1156 96 574 628 
1157 155 559 667 
1158 366 451 452 
1159 505 506 679 
1160 589 127 678 
1161 310 392 416 
1162 310 416 591 
1163 352 357 622 
1164 565 148 634 
1165 150 540 617 
1166 370 427 675 
1167 566 505 679 
1168 519 406 625 
1169 527 126 619 
1170 377 379 627 
1171 156 530 623 
1172 460 224 548 
1173 554 380 642 
1174 340 578 671 
1175 572 159 682 
1176 272 212 648 
1177 59 60 626 
1178 598 117 665 
1179 231 369 441 
1180 203 204 205 
1181 449 327 451 
1182 605 604 606 
1183 512 432 634 
1184 577 91 657 
1185 393 629 666 
1186 495 410 673 
1187 399 396 678 
1188 18 19 633 
1189 611 584 662 
1190 291 214 591 
1191 398 270 460 
1192 428 371 556 
1193 213 200 224 
1194 224 200 548 
1195 134 324 653 
1196 449 349 653 
1197 290 214 291 
1198 66 67 635 
1199 383 600 661 
1200 374 372 638 
1201 95 96 628 
1202 597 145 669 
1203 399 532 683 
1204 458 354 641 
1205 123 554 642 
1206 544 131 676 
1207 574 403 628 
1208 76 77 639 
1209 274 296 297 
1210 339 340 370 
1211 582 472 654 
1212 415 414 643 
1213 302 305 308 
1214 434 313 668 
1215 137 331 640 
1216 143 628 675 
1217 158 44 660 
1218 8 358 659 
1219 55 159 658 
1220 437 546 650 
1221 535 129 674 
1222 159 649 682 
1223 442 441 683 
1224 311 629 652 
1225 38 39 644 
1226 343 601 663 
1227 316 233 317 
1228 326 385 670 
1229 432 565 634 
1230 571 358 612 
1231 567 155 667 
1232 160 544 676 
1233 564 123 642 
1234 423 425 669 
1235 22 23 656 
1236 324 323 325 
1237 365 350 366 
1238 376 602 646 
1239 391 645 672 
1240 146 75 655 
1241 467 535 674 
1242 159 541 649 
1243 131 102 676 
1244 205 204 207 
1245 218 303 647 
1246 121 539 661 
1247 281 393 466 
1248 578 390 671 
1249 507 316 679 
1250 546 446 654 
1251 589 429 639 
1252 334 330 607 
1253 153 528 662 
1254 81 82 681 
1255 376 342 602 
1256 331 330 332 
1257 419 599 650 
1258 302 448 485 
1259 586 379 651 
1260 149 561 673 
1261 561 495 673 
1262 115 132 630 
1263 604 292 606 
1264 451 567 667 
1265 303 555 646 
1266 232 276 352 
1267 208 207 226 
1268 207 234 464 
1269 466 467 680 
1270 270 224 460 
1271 353 577 657 
1272 357 276 621 
1273 345 343 663 
1274 389 584 611 
1275 620 434 668 
1276 220 221 222 
1277 92 353 657 
1278 559 452 667 
1279 334 607 677 
1280 403 370 675 
1281 342 343 344 
1282 468 620 668 
1283 336 337 338 
1284 222 274 284 
1285 351 334 611 
1286 532 598 665 
1287 220 222 613 
1288 336 338 385 
1289 226 207 464 
1290 385 338 445 
1291 301 375 624 
1292 599 453 650 
1293 446 582 654 
1294 352 466 666 
1295 570 158 660 
1296 358 571 659 
1297 159 572 658 
1298 593 345 636 
1299 632 368 680 
1300 327 325 328 
1301 45 570 660 
1302 571 101 659 
1303 572 54 658 
1304 466 393 666 
1305 332 334 351 
1306 425 597 669 
1307 628 403 675 
1308 292 291 293 
1309 233 224 270 
1310 209 210 225 
1311 209 225 592 
1312 303 646 647 
1313 551 572 682 
1314 331 332 333 
1315 117 583 665 
1316 217 218 232 
1317 365 636 663 
1318 223 280 281 
1319 674 632 680 
1320 332 330 334 
1321 600 121 661 
1322 452 451 667 
1323 205 207 208 
1324 645 371 672 
1325 316 566 679 
1326 646 602 647 
1327 302 301 305 
1328 129 632 674 
1329 601 365 663 
1330 351 611 662 
1331 232 352 666 
1332 556 371 645 
1333 305 301 624 
1334 602 621 647 
1335 385 445 641 
1336 217 232 629 
1337 299 301 302 
1338 232 218 276 
1339 324 325 327 
1340 375 592 624 
1341 225 210 231 
1342 293 291 631 
1343 365 366 636 
1344 671 391 672 
1345 602 344 621 
1346 416 392 448 
1347 212 223 230 
1348 222 221 274 
1349 338 337 339 
1350 344 343 345 
1351 290 291 292 
1352 276 218 647 
1353 615 333 637 
1354 213 224 233 
1355 641 354 670 
1356 299 302 485 
1357 448 392 485 
1358 649 439 682 
1359 342 344 602 
1360 611 334 677 
1361 636 345 663 
1362 212 230 648 
1363 467 674 680 
1364 385 641 670 
1365 621 276 647 
1366 591 416 631 
1367 629 232 666 
1368 389 611 677 
1369 340 671 672 
1370 291 591 631 
1371 325 323 326 
1372 463 462 614 
$EndElements
