$MeshFormat
2.2 0 8
$EndMeshFormat
$PhysicalNames
9
0 1 "sw"
0 2 "se"
0 3 "ne"
0 4 "nw"
1 5 "south"
1 6 "east"
1 7 "north"
1 8 "west"
2 9 "domain"
$EndPhysicalNames
$Nodes
355
1 0.2489897948556636 0.19 0
2 0.5989897948556635 0.19 0
3 0.5989897948556635 0.21 0
4 0.2489897948556636 0.21 0
5 0.2539897948556608 0.19 0
6 0.2589897948556363 0.19 0
7 0.2639897948556336 0.19 0
8 0.2689897948556091 0.19 0
9 0.2739897948556078 0.19 0
10 0.2789897948556035 0.19 0
11 0.283989794855579 0.19 0
12 0.2889897948555831 0.19 0
13 0.2939897948555685 0.19 0
14 0.298989794855552 0.19 0
15 0.303989794855557 0.19 0
16 0.3089897948555332 0.19 0
17 0.3139897948555272 0.19 0
18 0.318989794855527 0.19 0
19 0.3239897948555025 0.19 0
20 0.3289897948555025 0.19 0
21 0.333989794855496 0.19 0
22 0.3389897948554724 0.19 0
23 0.3439897948554508 0.19 0
24 0.3489897948554173 0.19 0
25 0.353989794855399 0.19 0
26 0.3589897948553745 0.19 0
27 0.3639897948553609 0.19 0
28 0.3689897948553473 0.19 0
29 0.3739897948553228 0.19 0
30 0.3789897948553092 0.19 0
31 0.3839897948552915 0.19 0
32 0.3889897948552711 0.19 0
33 0.3939897948552574 0.19 0
34 0.3989897948552346 0.19 0
35 0.4039897948552194 0.19 0
36 0.4089897948552057 0.19 0
37 0.4139897948551813 0.19 0
38 0.4189897948551676 0.19 0
39 0.4239897948551649 0.19 0
40 0.4289897948551908 0.19 0
41 0.4339897948551989 0.19 0
42 0.4389897948552104 0.19 0
43 0.4439897948552364 0.19 0
44 0.4489897948552608 0.19 0
45 0.4539897948552776 0.19 0
46 0.4589897948553036 0.19 0
47 0.4639897948553228 0.19 0
48 0.468989794855329 0.19 0
49 0.4739897948553491 0.19 0
50 0.4789897948553631 0.19 0
51 0.4839897948553692 0.19 0
52 0.4889897948553754 0.19 0
53 0.4939897948553816 0.19 0
54 0.4989897948553879 0.19 0
55 0.5039897948553668 0.19 0
56 0.5089897948553803 0.19 0
57 0.5139897948554064 0.19 0
58 0.5189897948553748 0.19 0
59 0.5239897948554095 0.19 0
60 0.5289897948554163 0.19 0
61 0.5339897948553928 0.19 0
62 0.5389897948554374 0.19 0
63 0.5439897948554244 0.19 0
64 0.5489897948554219 0.19 0
65 0.5539897948554895 0.19 0
66 0.5589897948554758 0.19 0
67 0.5639897948554987 0.19 0
68 0.5689897948555607 0.19 0
69 0.5739897948555273 0.19 0
70 0.5789897948555818 0.19 0
71 0.5839897948556121 0.19 0
72 0.5889897948555936 0.19 0
73 0.5939897948556611 0.19 0
74 0.5989897948556635 0.1949999999999973 0
75 0.5989897948556635 0.1999999999999675 0
76 0.5989897948556635 0.2049999999999756 0
77 0.5939897948556805 0.21 0
78 0.5889897948556759 0.21 0
79 0.5839897948557035 0.21 0
80 0.5789897948557099 0.21 0
81 0.5739897948557083 0.21 0
82 0.5689897948557434 0.21 0
83 0.5639897948557393 0.21 0
84 0.5589897948557483 0.21 0
85 0.5539897948557734 0.21 0
86 0.5489897948557687 0.21 0
87 0.5439897948557882 0.21 0
88 0.5389897948558028 0.21 0
89 0.5339897948557982 0.21 0
90 0.5289897948558282 0.21 0
91 0.5239897948558415 0.21 0
92 0.5189897948558766 0.21 0
93 0.5139897948559097 0.21 0
94 0.5089897948559249 0.21 0
95 0.5039897948559438 0.21 0
96 0.4989897948559391 0.21 0
97 0.4939897948559344 0.21 0
98 0.4889897948559455 0.21 0
99 0.4839897948559684 0.21 0
100 0.4789897948559637 0.21 0
101 0.4739897948559854 0.21 0
102 0.4689897948560037 0.21 0
103 0.4639897948560148 0.21 0
104 0.4589897948560231 0.21 0
105 0.4539897948560383 0.21 0
106 0.4489897948560442 0.21 0
107 0.4439897948560578 0.21 0
108 0.4389897948560729 0.21 0
109 0.4339897948560772 0.21 0
110 0.4289897948560924 0.21 0
111 0.4239897948561075 0.21 0
112 0.4189897948561029 0.21 0
113 0.4139897948560912 0.21 0
114 0.408989794856072 0.21 0
115 0.4039897948560674 0.21 0
116 0.3989897948560628 0.21 0
117 0.3939897948560581 0.21 0
118 0.3889897948560535 0.21 0
119 0.383989794856042 0.21 0
120 0.3789897948560225 0.21 0
121 0.3739897948560179 0.21 0
122 0.3689897948560012 0.21 0
123 0.3639897948559869 0.21 0
124 0.3589897948559823 0.21 0
125 0.3539897948559603 0.21 0
126 0.3489897948559312 0.21 0
127 0.3439897948559034 0.21 0
128 0.3389897948558987 0.21 0
129 0.3339897948558841 0.21 0
130 0.3289897948558678 0.21 0
131 0.3239897948558632 0.21 0
132 0.3189897948558433 0.21 0
133 0.3139897948558322 0.21 0
134 0.3089897948558269 0.21 0
135 0.3039897948558025 0.21 0
136 0.2989897948557966 0.21 0
137 0.2939897948557753 0.21 0
138 0.2889897948557657 0.21 0
139 0.2839897948557589 0.21 0
140 0.2789897948557347 0.21 0
141 0.2739897948557301 0.21 0
142 0.268989794855718 0.21 0
143 0.2639897948556992 0.21 0
144 0.2589897948556946 0.21 0
145 0.2539897948556772 0.21 0
146 0.2489897948556636 0.205 0
147 0.2489897948556636 0.2000000000000271 0
148 0.2489897948556636 0.1950000000000217 0
149 0.2539897948556649 0.1950000000000213 0
150 0.253989794855669 0.2000000000000263 0
151 0.2539897948556731 0.2049999999999996 0
152 0.2589897948556509 0.195000000000021 0
153 0.2589897948556654 0.2000000000000254 0
154 0.25898979485568 0.2049999999999993 0
155 0.26398979485565 0.1950000000000207 0
156 0.2639897948556663 0.2000000000000246 0
157 0.2639897948556827 0.204999999999999 0
158 0.2689897948556363 0.1950000000000203 0
159 0.2689897948556635 0.2000000000000237 0
160 0.2689897948556908 0.2049999999999986 0
161 0.2739897948556385 0.19500000000002 0
162 0.2739897948556689 0.2000000000000228 0
163 0.2739897948556995 0.2049999999999982 0
164 0.2789897948556364 0.1950000000000196 0
165 0.2789897948556691 0.200000000000022 0
166 0.2789897948557019 0.2049999999999979 0
167 0.283989794855624 0.1950000000000192 0
168 0.2839897948556689 0.2000000000000212 0
169 0.2839897948557139 0.2049999999999976 0
170 0.2889897948556287 0.1950000000000189 0
171 0.2889897948556743 0.2000000000000202 0
172 0.2889897948557201 0.2049999999999972 0
173 0.2939897948556202 0.1950000000000185 0
174 0.2939897948556718 0.2000000000000194 0
175 0.2939897948557236 0.2049999999999969 0
176 0.2989897948556132 0.1950000000000182 0
177 0.2989897948556742 0.2000000000000186 0
178 0.2989897948557356 0.2049999999999965 0
179 0.3039897948556184 0.1950000000000179 0
180 0.3039897948556797 0.2000000000000177 0
181 0.3039897948557411 0.2049999999999962 0
182 0.3089897948556066 0.1950000000000175 0
183 0.3089897948556801 0.2000000000000169 0
184 0.3089897948557535 0.2049999999999958 0
185 0.3139897948556034 0.1950000000000172 0
186 0.3139897948556798 0.2000000000000161 0
187 0.313989794855756 0.2049999999999955 0
188 0.3189897948556061 0.1950000000000168 0
189 0.3189897948556852 0.2000000000000151 0
190 0.3189897948557642 0.2049999999999951 0
191 0.3239897948555926 0.1950000000000164 0
192 0.3239897948556828 0.2000000000000143 0
193 0.323989794855773 0.2049999999999948 0
194 0.3289897948555938 0.1950000000000161 0
195 0.3289897948556851 0.2000000000000134 0
196 0.3289897948557765 0.2049999999999945 0
197 0.3339897948555929 0.1950000000000158 0
198 0.33398979485569 0.2000000000000126 0
199 0.3339897948557871 0.2049999999999941 0
200 0.338989794855579 0.1950000000000154 0
201 0.3389897948556856 0.2000000000000117 0
202 0.3389897948557922 0.2049999999999937 0
203 0.343989794855564 0.195000000000015 0
204 0.343989794855677 0.2000000000000109 0
205 0.3439897948557903 0.2049999999999934 0
206 0.3489897948555458 0.1950000000000147 0
207 0.3489897948556743 0.2000000000000101 0
208 0.3489897948558027 0.204999999999993 0
209 0.3539897948555392 0.1950000000000143 0
210 0.3539897948556796 0.2000000000000093 0
211 0.3539897948558199 0.2049999999999927 0
212 0.3589897948555265 0.195000000000014 0
213 0.3589897948556784 0.2000000000000083 0
214 0.3589897948558304 0.2049999999999924 0
215 0.3639897948555175 0.1950000000000136 0
216 0.3639897948556741 0.2000000000000075 0
217 0.3639897948558304 0.204999999999992 0
218 0.3689897948555106 0.1950000000000133 0
219 0.3689897948556743 0.2000000000000066 0
220 0.3689897948558377 0.2049999999999916 0
221 0.3739897948554965 0.195000000000013 0
222 0.3739897948556703 0.2000000000000058 0
223 0.3739897948558442 0.2049999999999913 0
224 0.3789897948554874 0.1950000000000126 0
225 0.3789897948556659 0.2000000000000049 0
226 0.3789897948558442 0.2049999999999909 0
227 0.3839897948554792 0.1950000000000123 0
228 0.3839897948556669 0.2000000000000041 0
229 0.3839897948558544 0.2049999999999906 0
230 0.3889897948554667 0.1950000000000119 0
231 0.3889897948556622 0.2000000000000032 0
232 0.3889897948558578 0.2049999999999902 0
233 0.3939897948554576 0.1950000000000116 0
234 0.3939897948556578 0.2000000000000024 0
235 0.393989794855858 0.2049999999999899 0
236 0.3989897948554417 0.1950000000000112 0
237 0.3989897948556486 0.2000000000000015 0
238 0.3989897948558557 0.2049999999999895 0
239 0.4039897948554315 0.1950000000000109 0
240 0.4039897948556433 0.2000000000000007 0
241 0.4039897948558554 0.2049999999999892 0
242 0.4089897948554223 0.1950000000000106 0
243 0.4089897948556389 0.1999999999999998 0
244 0.4089897948558553 0.2049999999999889 0
245 0.4139897948554087 0.1950000000000102 0
246 0.4139897948556363 0.199999999999999 0
247 0.4139897948558636 0.2049999999999885 0
248 0.4189897948554016 0.1950000000000098 0
249 0.4189897948556353 0.1999999999999982 0
250 0.4189897948558691 0.2049999999999881 0
251 0.4239897948554005 0.1950000000000095 0
252 0.4239897948556361 0.1999999999999973 0
253 0.4239897948558718 0.2049999999999878 0
254 0.4289897948554161 0.1950000000000091 0
255 0.4289897948556416 0.1999999999999963 0
256 0.428989794855867 0.2049999999999875 0
257 0.4339897948554184 0.1950000000000088 0
258 0.433989794855638 0.1999999999999956 0
259 0.4339897948558576 0.2049999999999871 0
260 0.4389897948554259 0.1950000000000084 0
261 0.4389897948556417 0.1999999999999947 0
262 0.4389897948558573 0.2049999999999867 0
263 0.4439897948554417 0.1950000000000081 0
264 0.4439897948556472 0.1999999999999938 0
265 0.4439897948558525 0.2049999999999864 0
266 0.4489897948554565 0.1950000000000078 0
267 0.4489897948556525 0.199999999999993 0
268 0.4489897948558484 0.204999999999986 0
269 0.4539897948554677 0.1950000000000074 0
270 0.453989794855658 0.1999999999999922 0
271 0.4539897948558481 0.2049999999999857 0
272 0.4589897948554835 0.1950000000000071 0
273 0.4589897948556634 0.1999999999999913 0
274 0.4589897948558431 0.2049999999999854 0
275 0.4639897948554957 0.1950000000000067 0
276 0.4639897948556687 0.1999999999999905 0
277 0.4639897948558418 0.204999999999985 0
278 0.4689897948554976 0.1950000000000063 0
279 0.4689897948556663 0.1999999999999896 0
280 0.468989794855835 0.2049999999999846 0
281 0.4739897948555082 0.195000000000006 0
282 0.4739897948556673 0.1999999999999887 0
283 0.4739897948558263 0.2049999999999843 0
284 0.4789897948555133 0.1950000000000057 0
285 0.4789897948556633 0.1999999999999879 0
286 0.4789897948558135 0.204999999999984 0
287 0.483989794855519 0.1950000000000053 0
288 0.4839897948556688 0.1999999999999871 0
289 0.4839897948558186 0.2049999999999836 0
290 0.4889897948555181 0.1950000000000049 0
291 0.4889897948556606 0.1999999999999861 0
292 0.488989794855803 0.2049999999999833 0
293 0.4939897948555199 0.1950000000000046 0
294 0.4939897948556581 0.1999999999999854 0
295 0.4939897948557962 0.2049999999999829 0
296 0.4989897948555256 0.1950000000000042 0
297 0.4989897948556634 0.1999999999999845 0
298 0.4989897948558012 0.2049999999999826 0
299 0.5039897948555109 0.1950000000000039 0
300 0.5039897948556552 0.1999999999999836 0
301 0.5039897948557995 0.2049999999999822 0
302 0.5089897948555164 0.1950000000000036 0
303 0.5089897948556527 0.1999999999999828 0
304 0.5089897948557887 0.2049999999999819 0
305 0.5139897948555323 0.1950000000000032 0
306 0.513989794855658 0.199999999999982 0
307 0.5139897948557839 0.2049999999999815 0
308 0.5189897948555002 0.1950000000000029 0
309 0.5189897948556257 0.1999999999999811 0
310 0.5189897948557511 0.2049999999999811 0
311 0.5239897948555173 0.1950000000000025 0
312 0.5239897948556254 0.1999999999999803 0
313 0.5239897948557335 0.2049999999999808 0
314 0.5289897948555193 0.1950000000000022 0
315 0.5289897948556223 0.1999999999999794 0
316 0.5289897948557252 0.2049999999999805 0
317 0.5339897948554942 0.1950000000000018 0
318 0.5339897948555955 0.1999999999999785 0
319 0.5339897948556968 0.2049999999999801 0
320 0.5389897948555286 0.1950000000000014 0
321 0.5389897948556202 0.1999999999999777 0
322 0.5389897948557114 0.2049999999999798 0
323 0.5439897948555156 0.1950000000000011 0
324 0.5439897948556064 0.1999999999999768 0
325 0.5439897948556973 0.2049999999999794 0
326 0.5489897948555087 0.1950000000000008 0
327 0.5489897948555953 0.1999999999999759 0
328 0.5489897948556821 0.2049999999999791 0
329 0.5539897948555605 0.1950000000000005 0
330 0.5539897948556316 0.1999999999999752 0
331 0.5539897948557025 0.2049999999999787 0
332 0.558989794855544 0.1950000000000001 0
333 0.5589897948556122 0.1999999999999743 0
334 0.55898979485568 0.2049999999999784 0
335 0.5639897948555588 0.1949999999999997 0
336 0.5639897948556191 0.1999999999999734 0
337 0.5639897948556792 0.204999999999978 0
338 0.5689897948556064 0.1949999999999993 0
339 0.5689897948556519 0.1999999999999725 0
340 0.5689897948556976 0.2049999999999776 0
341 0.5739897948555726 0.194999999999999 0
342 0.573989794855618 0.1999999999999718 0
343 0.5739897948556633 0.2049999999999773 0
344 0.5789897948556137 0.1949999999999987 0
345 0.5789897948556458 0.1999999999999708 0
346 0.5789897948556779 0.204999999999977 0
347 0.5839897948556348 0.1949999999999983 0
348 0.5839897948556578 0.19999999999997 0
349 0.5839897948556805 0.2049999999999766 0
350 0.5889897948556141 0.194999999999998 0
351 0.5889897948556345 0.1999999999999692 0
352 0.5889897948556553 0.2049999999999763 0
353 0.5939897948556659 0.1949999999999976 0
354 0.5939897948556708 0.1999999999999683 0
355 0.5939897948556757 0.2049999999999759 0
$EndNodes
$Elements
432
1 15 2 1 1 1
2 15 2 2 2 2
3 15 2 3 3 3
4 15 2 4 4 4
5 1 2 5 1 1 5
6 1 2 5 1 5 6
7 1 2 5 1 6 7
8 1 2 5 1 7 8
9 1 2 5 1 8 9
10 1 2 5 1 9 10
11 1 2 5 1 10 11
12 1 2 5 1 11 12
13 1 2 5 1 12 13
14 1 2 5 1 13 14
15 1 2 5 1 14 15
16 1 2 5 1 15 16
17 1 2 5 1 16 17
18 1 2 5 1 17 18
19 1 2 5 1 18 19
20 1 2 5 1 19 20
21 1 2 5 1 20 21
22 1 2 5 1 21 22
23 1 2 5 1 22 23
24 1 2 5 1 23 24
25 1 2 5 1 24 25
26 1 2 5 1 25 26
27 1 2 5 1 26 27
28 1 2 5 1 27 28
29 1 2 5 1 28 29
30 1 2 5 1 29 30
31 1 2 5 1 30 31
32 1 2 5 1 31 32
33 1 2 5 1 32 33
34 1 2 5 1 33 34
35 1 2 5 1 34 35
36 1 2 5 1 35 36
37 1 2 5 1 36 37
38 1 2 5 1 37 38
39 1 2 5 1 38 39
40 1 2 5 1 39 40
41 1 2 5 1 40 41
42 1 2 5 1 41 42
43 1 2 5 1 42 43
44 1 2 5 1 43 44
45 1 2 5 1 44 45
46 1 2 5 1 45 46
47 1 2 5 1 46 47
48 1 2 5 1 47 48
49 1 2 5 1 48 49
50 1 2 5 1 49 50
51 1 2 5 1 50 51
52 1 2 5 1 51 52
53 1 2 5 1 52 53
54 1 2 5 1 53 54
55 1 2 5 1 54 55
56 1 2 5 1 55 56
57 1 2 5 1 56 57
58 1 2 5 1 57 58
59 1 2 5 1 58 59
60 1 2 5 1 59 60
61 1 2 5 1 60 61
62 1 2 5 1 61 62
63 1 2 5 1 62 63
64 1 2 5 1 63 64
65 1 2 5 1 64 65
66 1 2 5 1 65 66
67 1 2 5 1 66 67
68 1 2 5 1 67 68
69 1 2 5 1 68 69
70 1 2 5 1 69 70
71 1 2 5 1 70 71
72 1 2 5 1 71 72
73 1 2 5 1 72 73
74 1 2 5 1 73 2
75 1 2 6 2 2 74
76 1 2 6 2 74 75
77 1 2 6 2 75 76
78 1 2 6 2 76 3
79 1 2 7 3 3 77
80 1 2 7 3 77 78
81 1 2 7 3 78 79
82 1 2 7 3 79 80
83 1 2 7 3 80 81
84 1 2 7 3 81 82
85 1 2 7 3 82 83
86 1 2 7 3 83 84
87 1 2 7 3 84 85
88 1 2 7 3 85 86
89 1 2 7 3 86 87
90 1 2 7 3 87 88
91 1 2 7 3 88 89
92 1 2 7 3 89 90
93 1 2 7 3 90 91
94 1 2 7 3 91 92
95 1 2 7 3 92 93
96 1 2 7 3 93 94
97 1 2 7 3 94 95
98 1 2 7 3 95 96
99 1 2 7 3 96 97
100 1 2 7 3 97 98
101 1 2 7 3 98 99
102 1 2 7 3 99 100
103 1 2 7 3 100 101
104 1 2 7 3 101 102
105 1 2 7 3 102 103
106 1 2 7 3 103 104
107 1 2 7 3 104 105
108 1 2 7 3 105 106
109 1 2 7 3 106 107
110 1 2 7 3 107 108
111 1 2 7 3 108 109
112 1 2 7 3 109 110
113 1 2 7 3 110 111
114 1 2 7 3 111 112
115 1 2 7 3 112 113
116 1 2 7 3 113 114
117 1 2 7 3 114 115
118 1 2 7 3 115 116
119 1 2 7 3 116 117
120 1 2 7 3 117 118
121 1 2 7 3 118 119
122 1 2 7 3 119 120
123 1 2 7 3 120 121
124 1 2 7 3 121 122
125 1 2 7 3 122 123
126 1 2 7 3 123 124
127 1 2 7 3 124 125
128 1 2 7 3 125 126
129 1 2 7 3 126 127
130 1 2 7 3 127 128
131 1 2 7 3 128 129
132 1 2 7 3 129 130
133 1 2 7 3 130 131
134 1 2 7 3 131 132
135 1 2 7 3 132 133
136 1 2 7 3 133 134
137 1 2 7 3 134 135
138 1 2 7 3 135 136
139 1 2 7 3 136 137
140 1 2 7 3 137 138
141 1 2 7 3 138 139
142 1 2 7 3 139 140
143 1 2 7 3 140 141
144 1 2 7 3 141 142
145 1 2 7 3 142 143
146 1 2 7 3 143 144
147 1 2 7 3 144 145
148 1 2 7 3 145 4
149 1 2 8 4 4 146
150 1 2 8 4 146 147
151 1 2 8 4 147 148
152 1 2 8 4 148 1
153 3 2 9 1 1 5 149 148
154 3 2 9 1 148 149 150 147
155 3 2 9 1 147 150 151 146
156 3 2 9 1 146 151 145 4
157 3 2 9 1 5 6 152 149
158 3 2 9 1 149 152 153 150
159 3 2 9 1 150 153 154 151
160 3 2 9 1 151 154 144 145
161 3 2 9 1 6 7 155 152
162 3 2 9 1 152 155 156 153
163 3 2 9 1 153 156 157 154
164 3 2 9 1 154 157 143 144
165 3 2 9 1 7 8 158 155
166 3 2 9 1 155 158 159 156
167 3 2 9 1 156 159 160 157
168 3 2 9 1 157 160 142 143
169 3 2 9 1 8 9 161 158
170 3 2 9 1 158 161 162 159
171 3 2 9 1 159 162 163 160
172 3 2 9 1 160 163 141 142
173 3 2 9 1 9 10 164 161
174 3 2 9 1 161 164 165 162
175 3 2 9 1 162 165 166 163
176 3 2 9 1 163 166 140 141
177 3 2 9 1 10 11 167 164
178 3 2 9 1 164 167 168 165
179 3 2 9 1 165 168 169 166
180 3 2 9 1 166 169 139 140
181 3 2 9 1 11 12 170 167
182 3 2 9 1 167 170 171 168
183 3 2 9 1 168 171 172 169
184 3 2 9 1 169 172 138 139
185 3 2 9 1 12 13 173 170
186 3 2 9 1 170 173 174 171
187 3 2 9 1 171 174 175 172
188 3 2 9 1 172 175 137 138
189 3 2 9 1 13 14 176 173
190 3 2 9 1 173 176 177 174
191 3 2 9 1 174 177 178 175
192 3 2 9 1 175 178 136 137
193 3 2 9 1 14 15 179 176
194 3 2 9 1 176 179 180 177
195 3 2 9 1 177 180 181 178
196 3 2 9 1 178 181 135 136
197 3 2 9 1 15 16 182 179
198 3 2 9 1 179 182 183 180
199 3 2 9 1 180 183 184 181
200 3 2 9 1 181 184 134 135
201 3 2 9 1 16 17 185 182
202 3 2 9 1 182 185 186 183
203 3 2 9 1 183 186 187 184
204 3 2 9 1 184 187 133 134
205 3 2 9 1 17 18 188 185
206 3 2 9 1 185 188 189 186
207 3 2 9 1 186 189 190 187
208 3 2 9 1 187 190 132 133
209 3 2 9 1 18 19 191 188
210 3 2 9 1 188 191 192 189
211 3 2 9 1 189 192 193 190
212 3 2 9 1 190 193 131 132
213 3 2 9 1 19 20 194 191
214 3 2 9 1 191 194 195 192
215 3 2 9 1 192 195 196 193
216 3 2 9 1 193 196 130 131
217 3 2 9 1 20 21 197 194
218 3 2 9 1 194 197 198 195
219 3 2 9 1 195 198 199 196
220 3 2 9 1 196 199 129 130
221 3 2 9 1 21 22 200 197
222 3 2 9 1 197 200 201 198
223 3 2 9 1 198 201 202 199
224 3 2 9 1 199 202 128 129
225 3 2 9 1 22 23 203 200
226 3 2 9 1 200 203 204 201
227 3 2 9 1 201 204 205 202
228 3 2 9 1 202 205 127 128
229 3 2 9 1 23 24 206 203
230 3 2 9 1 203 206 207 204
231 3 2 9 1 204 207 208 205
232 3 2 9 1 205 208 126 127
233 3 2 9 1 24 25 209 206
234 3 2 9 1 206 209 210 207
235 3 2 9 1 207 210 211 208
236 3 2 9 1 208 211 125 126
237 3 2 9 1 25 26 212 209
238 3 2 9 1 209 212 213 210
239 3 2 9 1 210 213 214 211
240 3 2 9 1 211 214 124 125
241 3 2 9 1 26 27 215 212
242 3 2 9 1 212 215 216 213
243 3 2 9 1 213 216 217 214
244 3 2 9 1 214 217 123 124
245 3 2 9 1 27 28 218 215
246 3 2 9 1 215 218 219 216
247 3 2 9 1 216 219 220 217
248 3 2 9 1 217 220 122 123
249 3 2 9 1 28 29 221 218
250 3 2 9 1 218 221 222 219
251 3 2 9 1 219 222 223 220
252 3 2 9 1 220 223 121 122
253 3 2 9 1 29 30 224 221
254 3 2 9 1 221 224 225 222
255 3 2 9 1 222 225 226 223
256 3 2 9 1 223 226 120 121
257 3 2 9 1 30 31 227 224
258 3 2 9 1 224 227 228 225
259 3 2 9 1 225 228 229 226
260 3 2 9 1 226 229 119 120
261 3 2 9 1 31 32 230 227
262 3 2 9 1 227 230 231 228
263 3 2 9 1 228 231 232 229
264 3 2 9 1 229 232 118 119
265 3 2 9 1 32 33 233 230
266 3 2 9 1 230 233 234 231
267 3 2 9 1 231 234 235 232
268 3 2 9 1 232 235 117 118
269 3 2 9 1 33 34 236 233
270 3 2 9 1 233 236 237 234
271 3 2 9 1 234 237 238 235
272 3 2 9 1 235 238 116 117
273 3 2 9 1 34 35 239 236
274 3 2 9 1 236 239 240 237
275 3 2 9 1 237 240 241 238
276 3 2 9 1 238 241 115 116
277 3 2 9 1 35 36 242 239
278 3 2 9 1 239 242 243 240
279 3 2 9 1 240 243 244 241
280 3 2 9 1 241 244 114 115
281 3 2 9 1 36 37 245 242
282 3 2 9 1 242 245 246 243
283 3 2 9 1 243 246 247 244
284 3 2 9 1 244 247 113 114
285 3 2 9 1 37 38 248 245
286 3 2 9 1 245 248 249 246
287 3 2 9 1 246 249 250 247
288 3 2 9 1 247 250 112 113
289 3 2 9 1 38 39 251 248
290 3 2 9 1 248 251 252 249
291 3 2 9 1 249 252 253 250
292 3 2 9 1 250 253 111 112
293 3 2 9 1 39 40 254 251
294 3 2 9 1 251 254 255 252
295 3 2 9 1 252 255 256 253
296 3 2 9 1 253 256 110 111
297 3 2 9 1 40 41 257 254
298 3 2 9 1 254 257 258 255
299 3 2 9 1 255 258 259 256
300 3 2 9 1 256 259 109 110
301 3 2 9 1 41 42 260 257
302 3 2 9 1 257 260 261 258
303 3 2 9 1 258 261 262 259
304 3 2 9 1 259 262 108 109
305 3 2 9 1 42 43 263 260
306 3 2 9 1 260 263 264 261
307 3 2 9 1 261 264 265 262
308 3 2 9 1 262 265 107 108
309 3 2 9 1 43 44 266 263
310 3 2 9 1 263 266 267 264
311 3 2 9 1 264 267 268 265
312 3 2 9 1 265 268 106 107
313 3 2 9 1 44 45 269 266
314 3 2 9 1 266 269 270 267
315 3 2 9 1 267 270 271 268
316 3 2 9 1 268 271 105 106
317 3 2 9 1 45 46 272 269
318 3 2 9 1 269 272 273 270
319 3 2 9 1 270 273 274 271
320 3 2 9 1 271 274 104 105
321 3 2 9 1 46 47 275 272
322 3 2 9 1 272 275 276 273
323 3 2 9 1 273 276 277 274
324 3 2 9 1 274 277 103 104
325 3 2 9 1 47 48 278 275
326 3 2 9 1 275 278 279 276
327 3 2 9 1 276 279 280 277
328 3 2 9 1 277 280 102 103
329 3 2 9 1 48 49 281 278
330 3 2 9 1 278 281 282 279
331 3 2 9 1 279 282 283 280
332 3 2 9 1 280 283 101 102
333 3 2 9 1 49 50 284 281
334 3 2 9 1 281 284 285 282
335 3 2 9 1 282 285 286 283
336 3 2 9 1 283 286 100 101
337 3 2 9 1 50 51 287 284
338 3 2 9 1 284 287 288 285
339 3 2 9 1 285 288 289 286
340 3 2 9 1 286 289 99 100
341 3 2 9 1 51 52 290 287
342 3 2 9 1 287 290 291 288
343 3 2 9 1 288 291 292 289
344 3 2 9 1 289 292 98 99
345 3 2 9 1 52 53 293 290
346 3 2 9 1 290 293 294 291
347 3 2 9 1 291 294 295 292
348 3 2 9 1 292 295 97 98
349 3 2 9 1 53 54 296 293
350 3 2 9 1 293 296 297 294
351 3 2 9 1 294 297 298 295
352 3 2 9 1 295 298 96 97
353 3 2 9 1 54 55 299 296
354 3 2 9 1 296 299 300 297
355 3 2 9 1 297 300 301 298
356 3 2 9 1 298 301 95 96
357 3 2 9 1 55 56 302 299
358 3 2 9 1 299 302 303 300
359 3 2 9 1 300 303 304 301
360 3 2 9 1 301 304 94 95
361 3 2 9 1 56 57 305 302
362 3 2 9 1 302 305 306 303
363 3 2 9 1 303 306 307 304
364 3 2 9 1 304 307 93 94
365 3 2 9 1 57 58 308 305
366 3 2 9 1 305 308 309 306
367 3 2 9 1 306 309 310 307
368 3 2 9 1 307 310 92 93
369 3 2 9 1 58 59 311 308
370 3 2 9 1 308 311 312 309
371 3 2 9 1 309 312 313 310
372 3 2 9 1 310 313 91 92
373 3 2 9 1 59 60 314 311
374 3 2 9 1 311 314 315 312
375 3 2 9 1 312 315 316 313
376 3 2 9 1 313 316 90 91
377 3 2 9 1 60 61 317 314
378 3 2 9 1 314 317 318 315
379 3 2 9 1 315 318 319 316
380 3 2 9 1 316 319 89 90
381 3 2 9 1 61 62 320 317
382 3 2 9 1 317 320 321 318
383 3 2 9 1 318 321 322 319
384 3 2 9 1 319 322 88 89
385 3 2 9 1 62 63 323 320
386 3 2 9 1 320 323 324 321
387 3 2 9 1 321 324 325 322
388 3 2 9 1 322 325 87 88
389 3 2 9 1 63 64 326 323
390 3 2 9 1 323 326 327 324
391 3 2 9 1 324 327 328 325
392 3 2 9 1 325 328 86 87
393 3 2 9 1 64 65 329 326
394 3 2 9 1 326 329 330 327
395 3 2 9 1 327 330 331 328
396 3 2 9 1 328 331 85 86
397 3 2 9 1 65 66 332 329
398 3 2 9 1 329 332 333 330
399 3 2 9 1 330 333 334 331
400 3 2 9 1 331 334 84 85
401 3 2 9 1 66 67 335 332
402 3 2 9 1 332 335 336 333
403 3 2 9 1 333 336 337 334
404 3 2 9 1 334 337 83 84
405 3 2 9 1 67 68 338 335
406 3 2 9 1 335 338 339 336
407 3 2 9 1 336 339 340 337
408 3 2 9 1 337 340 82 83
409 3 2 9 1 68 69 341 338
410 3 2 9 1 338 341 342 339
411 3 2 9 1 339 342 343 340
412 3 2 9 1 340 343 81 82
413 3 2 9 1 69 70 344 341
414 3 2 9 1 341 344 345 342
415 3 2 9 1 342 345 346 343
416 3 2 9 1 343 346 80 81
417 3 2 9 1 70 71 347 344
418 3 2 9 1 344 347 348 345
419 3 2 9 1 345 348 349 346
420 3 2 9 1 346 349 79 80
421 3 2 9 1 71 72 350 347
422 3 2 9 1 347 350 351 348
423 3 2 9 1 348 351 352 349
424 3 2 9 1 349 352 78 79
425 3 2 9 1 72 73 353 350
426 3 2 9 1 350 353 354 351
427 3 2 9 1 351 354 355 352
428 3 2 9 1 352 355 77 78
429 3 2 9 1 73 2 74 353
430 3 2 9 1 353 74 75 354
431 3 2 9 1 354 75 76 355
432 3 2 9 1 355 76 3 77
$EndElements
